"seq_number","Site","Bio_rep2","Bio_rep3","Bio_rep1","ndetections","max_Occupancy_prob","sum.taxonomy"
"forward_PITS_1","112818_U",1,NA,NA,1,0.79947459791288,"not_found"
"forward_PITS_2","112818_U",1,NA,NA,1,0.79947459791288,"not_found"
"forward_PITS_4","112818_MS",1,NA,NA,1,0.79947459791288,"superkingdom:Eukaryota;phylum:Chlorophyta;class:Chlorophyceae;order:Chlamydomonadales;family:Chlamydomonadaceae;genus:Chlamydomonas;species:Chlamydomonas hedleyi;"
"forward_PITS_8","112818_M",1,NA,NA,1,0.79947459791288,"superkingdom:Eukaryota;phylum:Chlorophyta;class:Chlorophyceae;order:Sphaeropleales;family:Scenedesmaceae;genus:Pectinodesmus;species:Pectinodesmus regularis;"
"forward_PITS_17","112818_U",1,NA,NA,1,0.79947459791288,"not_found"
"forward_PITS_408","112818_MS",1,NA,NA,1,0.79947459791288,"not_found"
"forward_PITS_409","112818_MS",1,NA,NA,1,0.79947459791288,"superkingdom:Eukaryota;phylum:Chlorophyta;class:Chlorophyceae;order:Chlamydomonadales;family:Chlamydomonadaceae;genus:Chlamydomonas;species:Chlamydomonas hedleyi;"
"forward_PITS_410","112818_MS",1,NA,NA,1,0.79947459791288,"Unclassified"
"forward_PITS_411","112818_MS",1,NA,NA,1,0.79947459791288,"superkingdom:Eukaryota;phylum:Chlorophyta;class:Chlorophyceae;order:Sphaeropleales;family:Scenedesmaceae;genus:Pectinodesmus;species:Pectinodesmus regularis;"
"forward_PITS_412","112818_MS",1,NA,NA,1,0.79947459791288,"Unclassified"
"forward_PITS_413","112818_MS",1,NA,NA,1,0.79947459791288,"Unclassified"
"forward_PITS_414","112818_MS",1,NA,NA,1,0.79947459791288,"superkingdom:Eukaryota;phylum:Chlorophyta;class:Chlorophyceae;order:Sphaeropleales;family:Scenedesmaceae;genus:Pectinodesmus;species:Pectinodesmus regularis;"
"forward_PITS_415","112818_MS",1,NA,NA,1,0.79947459791288,"superkingdom:Eukaryota;phylum:Chlorophyta;class:Chlorodendrophyceae;order:Chlorodendrales;family:Chlorodendraceae;genus:Tetraselmis;species:Tetraselmis striata;"
"forward_PITS_416","112818_MS",1,NA,NA,1,0.79947459791288,"superkingdom:Eukaryota;phylum:Chlorophyta;class:Chlorodendrophyceae;order:Chlorodendrales;family:Chlorodendraceae;genus:Tetraselmis;species:Tetraselmis inconspicua;"
"forward_PITS_417","112818_MS",1,NA,NA,1,0.79947459791288,"superkingdom:Eukaryota;phylum:Chlorophyta;class:Chlorophyceae;order:Chlamydomonadales;family:Chlamydomonadaceae;genus:Chlamydomonas;species:Chlamydomonas hedleyi;"
"forward_PITS_418","112818_MS",1,NA,NA,1,0.79947459791288,"superkingdom:Eukaryota;phylum:Chlorophyta;class:Chlorophyceae;order:Chlamydomonadales;family:Chlamydomonadaceae;genus:Chlamydomonas;species:Chlamydomonas sp. UWO 241;"
"forward_PITS_419","112818_MS",1,NA,NA,1,0.79947459791288,"superkingdom:Eukaryota;phylum:Chlorophyta;class:Chlorophyceae;order:Chlamydomonadales;family:Chlamydomonadaceae;genus:Chlamydomonas;species:Chlamydomonas hedleyi;"
"forward_PITS_420","112818_MS",1,NA,NA,1,0.79947459791288,"superkingdom:Eukaryota;phylum:Chlorophyta;class:Chlorophyceae;order:Chlamydomonadales;family:Chlamydomonadaceae;genus:Chlamydomonas;species:Chlamydomonas sp. UWO 241;"
"forward_PITS_421","112818_MS",1,NA,NA,1,0.79947459791288,"superkingdom:Eukaryota;phylum:Chlorophyta;class:Chlorophyceae;order:Chlamydomonadales;family:Chlamydomonadaceae;genus:Chlamydomonas;species:Chlamydomonas hedleyi;"
"forward_PITS_422","112818_MS",1,NA,NA,1,0.79947459791288,"superkingdom:Eukaryota;phylum:Chlorophyta;class:Chlorophyceae;order:Chlamydomonadales;family:Chlamydomonadaceae;genus:Chlamydomonas;species:Chlamydomonas hedleyi;"
"forward_PITS_423","112818_MS",1,NA,NA,1,0.79947459791288,"superkingdom:Eukaryota;phylum:Chlorophyta;class:Chlorophyceae;order:Chlamydomonadales;family:Chlamydomonadaceae;genus:Chlamydomonas;species:Chlamydomonas sp. UWO 241;"
"forward_PITS_424","112818_MS",1,NA,NA,1,0.79947459791288,"superkingdom:Eukaryota;phylum:Chlorophyta;class:Chlorophyceae;order:Chlamydomonadales;family:Chlamydomonadaceae;genus:Chlamydomonas;species:Chlamydomonas sp. UWO 241;"
"forward_PITS_425","112818_MS",1,NA,NA,1,0.79947459791288,"superkingdom:Eukaryota;phylum:Chlorophyta;class:Chlorodendrophyceae;order:Chlorodendrales;family:Chlorodendraceae;genus:Tetraselmis;species:Tetraselmis inconspicua;"
"forward_PITS_426","112818_MS",1,NA,NA,1,0.79947459791288,"Unclassified"
"forward_PITS_427","112818_MS",1,NA,NA,1,0.79947459791288,"Unclassified"
"forward_PITS_453","112818_M",1,NA,NA,1,0.79947459791288,"superkingdom:Eukaryota;phylum:Streptophyta;class:Liliopsida;order:Poales;family:Poaceae;genus:Paspalum;species:Paspalum thunbergii;"
"forward_PITS_454","112818_M",1,NA,NA,1,0.79947459791288,"superkingdom:Eukaryota;phylum:Streptophyta;class:NA;order:Malpighiales;family:Salicaceae;genus:Salix;species:Salix herbacea;"
"forward_PITS_455","112818_M",1,NA,NA,1,0.79947459791288,"superkingdom:Eukaryota;phylum:Streptophyta;class:NA;order:Myrtales;family:Myrtaceae;genus:Eucalyptus;species:Eucalyptus macarthurii;"
"forward_PITS_456","112818_M",1,NA,NA,1,0.79947459791288,"superkingdom:Eukaryota;phylum:Streptophyta;class:NA;order:Myrtales;family:Myrtaceae;genus:Eucalyptus;species:Eucalyptus macarthurii;"
"forward_PITS_457","112818_M",1,NA,NA,1,0.79947459791288,"superkingdom:Eukaryota;phylum:Streptophyta;class:NA;order:Myrtales;family:Myrtaceae;genus:Eucalyptus;species:Eucalyptus macarthurii;"
"forward_PITS_458","112818_M",1,NA,NA,1,0.79947459791288,"superkingdom:Eukaryota;phylum:Streptophyta;class:NA;order:Myrtales;family:Myrtaceae;genus:Eucalyptus;species:Eucalyptus macarthurii;"
"forward_PITS_459","112818_M",1,NA,NA,1,0.79947459791288,"superkingdom:Eukaryota;phylum:Streptophyta;class:NA;order:Myrtales;family:Myrtaceae;genus:Eucalyptus;species:Eucalyptus macarthurii;"
"forward_PITS_460","112818_M",1,NA,NA,1,0.79947459791288,"Unclassified"
"forward_PITS_461","112818_M",1,NA,NA,1,0.79947459791288,"superkingdom:Eukaryota;phylum:Streptophyta;class:NA;order:Malpighiales;family:Salicaceae;genus:Salix;species:Salix herbacea;"
"forward_PITS_462","112818_M",1,NA,NA,1,0.79947459791288,"superkingdom:Eukaryota;phylum:Chlorophyta;class:Chlorophyceae;order:Sphaeropleales;family:Scenedesmaceae;genus:Pectinodesmus;species:Pectinodesmus regularis;"
"forward_PITS_463","112818_M",1,NA,NA,1,0.79947459791288,"Unclassified"
"forward_PITS_464","112818_M",1,NA,NA,1,0.79947459791288,"superkingdom:Eukaryota;phylum:Chlorophyta;class:Chlorophyceae;order:Sphaeropleales;family:Scenedesmaceae;genus:Pectinodesmus;species:Pectinodesmus regularis;"
"forward_PITS_465","112818_M",1,NA,NA,1,0.79947459791288,"superkingdom:Eukaryota;phylum:Chlorophyta;class:Chlorophyceae;order:Sphaeropleales;family:Scenedesmaceae;genus:Pectinodesmus;species:Pectinodesmus regularis;"
"forward_PITS_466","112818_M",1,NA,NA,1,0.79947459791288,"superkingdom:Eukaryota;phylum:Chlorophyta;class:Chlorophyceae;order:Sphaeropleales;family:Scenedesmaceae;genus:Pectinodesmus;species:Pectinodesmus regularis;"
"forward_PITS_467","112818_M",1,NA,NA,1,0.79947459791288,"superkingdom:Eukaryota;phylum:Chlorophyta;class:Chlorophyceae;order:Sphaeropleales;family:Scenedesmaceae;genus:Pectinodesmus;species:Pectinodesmus regularis;"
"forward_PITS_468","112818_M",1,NA,NA,1,0.79947459791288,"Unclassified"
"forward_PITS_469","112818_M",1,NA,NA,1,0.79947459791288,"superkingdom:Eukaryota;phylum:Chlorophyta;class:Ulvophyceae;order:Ulvales;family:NA;genus:Pseudendoclonium;species:Pseudendoclonium arthropyreniae;"
"forward_PITS_470","112818_M",1,NA,NA,1,0.79947459791288,"not_found"
"forward_PITS_471","112818_U",1,NA,NA,1,0.79947459791288,"not_found"
"forward_PITS_472","112818_U",1,NA,NA,1,0.79947459791288,"not_found"
"forward_PITS_473","112818_U",1,NA,NA,1,0.79947459791288,"not_found"
"forward_PITS_474","112818_U",1,NA,NA,1,0.79947459791288,"not_found"
"forward_PITS_475","112818_U",1,NA,NA,1,0.79947459791288,"not_found"
"forward_PITS_476","112818_U",1,NA,NA,1,0.79947459791288,"not_found"
"forward_PITS_477","112818_U",1,NA,NA,1,0.79947459791288,"not_found"
"forward_PITS_478","112818_U",1,NA,NA,1,0.79947459791288,"not_found"
"forward_PITS_479","112818_U",1,NA,NA,1,0.79947459791288,"not_found"
"forward_PITS_480","112818_U",1,NA,NA,1,0.79947459791288,"not_found"
"forward_PITS_481","112818_U",1,NA,NA,1,0.79947459791288,"not_found"
"forward_PITS_482","112818_U",1,NA,NA,1,0.79947459791288,"not_found"
"forward_PITS_483","112818_U",1,NA,NA,1,0.79947459791288,"not_found"
"forward_PITS_484","112818_U",1,NA,NA,1,0.79947459791288,"not_found"
"forward_PITS_485","112818_U",1,NA,NA,1,0.79947459791288,"not_found"
"forward_PITS_486","112818_U",1,NA,NA,1,0.79947459791288,"not_found"
"forward_PITS_487","112818_U",1,NA,NA,1,0.79947459791288,"not_found"
"forward_PITS_488","112818_U",1,NA,NA,1,0.79947459791288,"not_found"
"forward_PITS_489","112818_U",1,NA,NA,1,0.79947459791288,"not_found"
"forward_PITS_490","112818_U",1,NA,NA,1,0.79947459791288,"superkingdom:Eukaryota;phylum:Streptophyta;class:NA;order:Caryophyllales;family:Chenopodiaceae;genus:Atriplex;species:Atriplex amnicola;"
"forward_PITS_491","112818_U",1,NA,NA,1,0.79947459791288,"superkingdom:Eukaryota;phylum:Streptophyta;class:NA;order:Caryophyllales;family:Chenopodiaceae;genus:Atriplex;species:Atriplex amnicola;"
"forward_PITS_492","112818_U",1,NA,NA,1,0.79947459791288,"superkingdom:Eukaryota;phylum:Streptophyta;class:NA;order:Caryophyllales;family:Chenopodiaceae;genus:Atriplex;species:Atriplex amnicola;"
"forward_PITS_493","112818_U",1,NA,NA,1,0.79947459791288,"superkingdom:Eukaryota;phylum:Chlorophyta;class:Chlorophyceae;order:Sphaeropleales;family:Scenedesmaceae;genus:Pectinodesmus;species:Pectinodesmus regularis;"
"forward_PITS_494","112818_U",1,NA,NA,1,0.79947459791288,"superkingdom:Eukaryota;phylum:Chlorophyta;class:Chlorophyceae;order:Sphaeropleales;family:Scenedesmaceae;genus:Pectinodesmus;species:Pectinodesmus regularis;"
"forward_PITS_495","112818_U",1,NA,NA,1,0.79947459791288,"not_found"
"forward_PITS_496","112818_U",1,NA,NA,1,0.79947459791288,"not_found"
"merged_PITS_3","112818_M",1,NA,NA,1,0.79947459791288,"Unclassified"
"merged_PITS_5","112917_U",1,1,NA,2,0.927889680249884,"Unclassified"
"merged_PITS_7","112818_U",1,NA,NA,1,0.79947459791288,"superkingdom:Eukaryota;phylum:Chlorophyta;class:Chlorophyceae;order:Chlamydomonadales;family:Chlamydomonadaceae;genus:Chlamydomonas;species:Chlamydomonas dorsoventralis;"
"reverse_PITS_1","112917_C",1,1,NA,2,0.927889680249884,"not_found"
"reverse_PITS_229","112818_MS",1,NA,NA,1,0.79947459791288,"not_found"
"reverse_PITS_230","112818_MS",1,NA,NA,1,0.79947459791288,"Unclassified"
"reverse_PITS_251","112818_M",1,NA,NA,1,0.79947459791288,"not_found"
"reverse_PITS_252","112818_M",1,NA,NA,1,0.79947459791288,"not_found"
"reverse_PITS_253","112818_M",1,NA,NA,1,0.79947459791288,"not_found"
"reverse_PITS_254","112818_M",1,NA,NA,1,0.79947459791288,"superkingdom:Eukaryota;phylum:Chlorophyta;class:Chlorophyceae;order:Sphaeropleales;family:Selenastraceae;genus:Nephrochlamys;species:Nephrochlamys subsolitaria;"
"reverse_PITS_255","112818_M",1,NA,NA,1,0.79947459791288,"not_found"
"reverse_PITS_256","112818_U",1,NA,NA,1,0.79947459791288,"not_found"
"reverse_PITS_257","112818_U",1,NA,NA,1,0.79947459791288,"not_found"
"reverse_PITS_258","112818_U",1,NA,NA,1,0.79947459791288,"not_found"
"reverse_PITS_259","112818_U",1,NA,NA,1,0.79947459791288,"not_found"
"reverse_PITS_260","112818_U",1,NA,NA,1,0.79947459791288,"not_found"
"unmerged_PITS_12","112818_M",1,NA,NA,1,0.79947459791288,"superkingdom:Eukaryota;phylum:Streptophyta;class:Liliopsida;order:Poales;family:Poaceae;genus:Paspalum;species:Paspalum thunbergii;"
"unmerged_PITS_14","112818_U",1,NA,NA,1,0.79947459791288,"superkingdom:Eukaryota;phylum:Streptophyta;class:NA;order:Fagales;family:Betulaceae;genus:Alnus;species:Alnus rhombifolia;"
"unmerged_PITS_18","112818_M",1,NA,NA,1,0.79947459791288,"superkingdom:Eukaryota;phylum:Streptophyta;class:NA;order:Myrtales;family:Myrtaceae;genus:Eucalyptus;species:Eucalyptus macarthurii;"
"unmerged_PITS_36","112818_U",1,NA,NA,1,0.79947459791288,"superkingdom:Eukaryota;phylum:Streptophyta;class:NA;order:Caryophyllales;family:Chenopodiaceae;genus:Salicornia;species:Salicornia dolichostachya;"
"unmerged_PITS_37","112818_U",1,NA,NA,1,0.79947459791288,"superkingdom:Eukaryota;phylum:Streptophyta;class:NA;order:Caryophyllales;family:Chenopodiaceae;genus:Atriplex;species:Atriplex amnicola;"
"unmerged_PITS_40","112818_U",1,NA,NA,1,0.79947459791288,"superkingdom:Eukaryota;phylum:Streptophyta;class:NA;order:Caryophyllales;family:Chenopodiaceae;genus:Atriplex;species:Atriplex amnicola;"
"unmerged_PITS_46","112818_MS",1,NA,NA,1,0.79947459791288,"superkingdom:Eukaryota;phylum:Streptophyta;class:Liliopsida;order:Zingiberales;family:Musaceae;genus:Musa;species:Musa banksii;"
"unmerged_PITS_51","112818_U",1,NA,NA,1,0.79947459791288,"superkingdom:Eukaryota;phylum:Streptophyta;class:NA;order:Malpighiales;family:Salicaceae;genus:Salix;species:Salix herbacea;"
"unmerged_PITS_52","112818_M",1,NA,NA,1,0.79947459791288,"superkingdom:Eukaryota;phylum:Streptophyta;class:NA;order:Malpighiales;family:Salicaceae;genus:Salix;species:Salix herbacea;"
"unmerged_PITS_73","112818_U",1,NA,NA,1,0.79947459791288,"superkingdom:Eukaryota;phylum:Streptophyta;class:NA;order:Araucariales;family:Podocarpaceae;genus:Afrocarpus;species:Afrocarpus usambarensis;"
"unmerged_PITS_74","112917_MS",NA,1,1,2,0.930027293508719,"superkingdom:Eukaryota;phylum:Streptophyta;class:NA;order:Araucariales;family:Podocarpaceae;genus:Afrocarpus;species:Afrocarpus gracilior;"
"unmerged_PITS_90","112917_MS",1,NA,1,2,0.931465003293739,"superkingdom:Eukaryota;phylum:Chlorophyta;class:Trebouxiophyceae;order:NA;family:NA;genus:Dictyosphaerium;species:Trebouxiophyceae sp. MCWWW2;"
"unmerged_PITS_91","112917_U",1,1,1,3,0.988428226645012,"superkingdom:Eukaryota;phylum:Chlorophyta;class:Trebouxiophyceae;order:NA;family:NA;genus:Dictyosphaerium;species:Dictyosphaerium sp. YN29-3;"
"unmerged_PITS_91","112917_C",NA,1,1,2,0.930027293508719,"superkingdom:Eukaryota;phylum:Chlorophyta;class:Trebouxiophyceae;order:NA;family:NA;genus:Dictyosphaerium;species:Dictyosphaerium sp. YN29-3;"
"unmerged_PITS_99","112818_MS",1,NA,NA,1,0.79947459791288,"superkingdom:Eukaryota;phylum:Chlorophyta;class:Chlorophyceae;order:Chlamydomonadales;family:Chlamydomonadaceae;genus:Chlamydomonas;species:Chlamydomonas dorsoventralis;"
"unmerged_PITS_100","112818_MS",1,NA,NA,1,0.79947459791288,"superkingdom:Eukaryota;phylum:Chlorophyta;class:Chlorophyceae;order:Sphaeropleales;family:Selenastraceae;genus:Nephrochlamys;species:Nephrochlamys subsolitaria;"
"unmerged_PITS_106","112818_U",1,NA,NA,1,0.79947459791288,"superkingdom:Eukaryota;phylum:Chlorophyta;class:Chlorophyceae;order:Sphaeropleales;family:NA;genus:NA;species:Sphaeropleales sp. LBA 61;"
"unmerged_PITS_108","112818_U",1,NA,NA,1,0.79947459791288,"superkingdom:Eukaryota;phylum:Chlorophyta;class:Chlorophyceae;order:Chlamydomonadales;family:Chlamydomonadaceae;genus:Chlamydomonas;species:Chlamydomonas asymmetrica;"
"unmerged_PITS_109","112818_MS",1,NA,NA,1,0.79947459791288,"superkingdom:Eukaryota;phylum:Chlorophyta;class:Chlorophyceae;order:Chlamydomonadales;family:Chlamydomonadaceae;genus:Chlamydomonas;species:Chlamydomonas sp. CCAP 11/151;"
"unmerged_PITS_113","112818_M",1,NA,NA,1,0.79947459791288,"Unclassified"
"unmerged_PITS_115","112818_P",1,1,NA,2,0.927889680249884,"superkingdom:Eukaryota;phylum:Chlorophyta;class:Chlorophyceae;order:Sphaeropleales;family:Scenedesmaceae;genus:Pectinodesmus;species:Pectinodesmus regularis;"
"unmerged_PITS_116","112818_M",1,NA,NA,1,0.79947459791288,"superkingdom:Eukaryota;phylum:Chlorophyta;class:Chlorophyceae;order:Sphaeropleales;family:Selenastraceae;genus:Monoraphidium;species:Pectinodesmus regularis;"
"unmerged_PITS_117","112818_U",1,NA,NA,1,0.79947459791288,"superkingdom:Eukaryota;phylum:Chlorophyta;class:Chlorophyceae;order:Sphaeropleales;family:Scenedesmaceae;genus:Pectinodesmus;species:Pectinodesmus regularis;"
"unmerged_PITS_122","112818_M",1,NA,NA,1,0.79947459791288,"superkingdom:Eukaryota;phylum:Chlorophyta;class:Chlorophyceae;order:Sphaeropleales;family:Selenastraceae;genus:Nephrochlamys;species:Nephrochlamys subsolitaria;"
"unmerged_PITS_124","112917_U",NA,1,1,2,0.930027293508719,"superkingdom:Eukaryota;phylum:Chlorophyta;class:Chlorophyceae;order:Sphaeropleales;family:Scenedesmaceae;genus:Pectinodesmus;species:Pectinodesmus regularis;"
"unmerged_PITS_124","112818_M",1,NA,NA,1,0.79947459791288,"superkingdom:Eukaryota;phylum:Chlorophyta;class:Chlorophyceae;order:Sphaeropleales;family:Scenedesmaceae;genus:Pectinodesmus;species:Pectinodesmus regularis;"
"unmerged_PITS_127","112818_MS",1,NA,NA,1,0.79947459791288,"superkingdom:Eukaryota;phylum:Chlorophyta;class:Chlorophyceae;order:Sphaeropleales;family:Scenedesmaceae;genus:Pectinodesmus;species:Pectinodesmus regularis;"
"unmerged_PITS_132","112818_U",1,NA,NA,1,0.79947459791288,"superkingdom:Eukaryota;phylum:Chlorophyta;class:Chlorophyceae;order:Sphaeropleales;family:Selenastraceae;genus:Nephrochlamys;species:Nephrochlamys subsolitaria;"
"unmerged_PITS_138","112917_U",NA,1,1,2,0.930027293508719,"superkingdom:Eukaryota;phylum:Chlorophyta;class:Chlorophyceae;order:Sphaeropleales;family:Selenastraceae;genus:Monoraphidium;species:Selenastrum capricornutum;"
"unmerged_PITS_139","112818_U",1,NA,NA,1,0.79947459791288,"superkingdom:Eukaryota;phylum:Chlorophyta;class:Chlorophyceae;order:Sphaeropleales;family:Selenastraceae;genus:Pectinodesmus;species:Pectinodesmus regularis;"
"unmerged_PITS_144","112818_MS",1,NA,NA,1,0.79947459791288,"superkingdom:Eukaryota;phylum:Chlorophyta;class:Chlorodendrophyceae;order:Chlorodendrales;family:Chlorodendraceae;genus:Tetraselmis;species:Tetraselmis inconspicua;"
"unmerged_PITS_150","112917_U",1,NA,1,2,0.931465003293739,"superkingdom:Eukaryota;phylum:Chlorophyta;class:Chlorophyceae;order:Sphaeropleales;family:NA;genus:NA;species:Sphaeropleales sp. LBA 61;"
"unmerged_PITS_157","112917_M",1,NA,1,2,0.931465003293739,"superkingdom:Eukaryota;phylum:Chlorophyta;class:Chlorophyceae;order:Chlamydomonadales;family:Dunaliellaceae;genus:Dunaliella;species:Dunaliella salina;"
"unmerged_PITS_159","112818_MS",1,NA,NA,1,0.79947459791288,"superkingdom:Eukaryota;phylum:Chlorophyta;class:Chlorophyceae;order:Chlamydomonadales;family:Chlamydomonadaceae;genus:Chlamydomonas;species:Chlamydomonas splendida;"
"unmerged_PITS_167","112818_MS",1,NA,NA,1,0.79947459791288,"superkingdom:Eukaryota;phylum:Chlorophyta;class:Chlorophyceae;order:Chlamydomonadales;family:Chlamydomonadaceae;genus:Chlamydomonas;species:Chlamydomonas sp. UWO 241;"
"unmerged_PITS_169","112818_U",1,NA,NA,1,0.79947459791288,"Unclassified"
"unmerged_PITS_171","112818_MS",1,NA,NA,1,0.79947459791288,"superkingdom:Eukaryota;phylum:Chlorophyta;class:NA;order:Pyramimonadales;family:NA;genus:Pyramimonas;species:Pyramimonas tetrarhynchus;"
"unmerged_PITS_172","112818_M",1,NA,NA,1,0.79947459791288,"superkingdom:Eukaryota;phylum:Chlorophyta;class:NA;order:Pyramimonadales;family:NA;genus:Pyramimonas;species:Pyramimonas parkeae;"
"unmerged_PITS_173","112818_U",1,NA,NA,1,0.79947459791288,"superkingdom:Eukaryota;phylum:Chlorophyta;class:NA;order:Pyramimonadales;family:NA;genus:Pyramimonas;species:Pyramimonas tetrarhynchus;"
"unmerged_PITS_177","112818_U",1,NA,NA,1,0.79947459791288,"Unclassified"
