sum.taxonomy,082618_M,082618_MS,082618_P,082618_U,112818_M,112818_MS,112818_P,112818_U,112917_C,112917_M,112917_MS,112917_U
not_found,91,103,38,17,21,3,140,84,60,25,28,26
superkingdom:Eukaryota;phylum:Chlorophyta;class:Chlorodendrophyceae;order:Chlorodendrales;family:Chlorodendraceae;genus:Tetraselmis;species:Tetraselmis inconspicua;,0,0,0,0,0,394,91,0,0,0,0,0
superkingdom:Eukaryota;phylum:Chlorophyta;class:Chlorodendrophyceae;order:Chlorodendrales;family:Chlorodendraceae;genus:Tetraselmis;species:Tetraselmis striata;,0,0,0,0,0,4,0,0,0,0,0,0
superkingdom:Eukaryota;phylum:Chlorophyta;class:Chlorophyceae;order:Chlamydomonadales;family:Chlamydomonadaceae;genus:Chlamydomonas;species:Chlamydomonas asymmetrica;,0,0,0,0,0,0,281,37,0,0,0,0
superkingdom:Eukaryota;phylum:Chlorophyta;class:Chlorophyceae;order:Chlamydomonadales;family:Chlamydomonadaceae;genus:Chlamydomonas;species:Chlamydomonas dorsoventralis;,0,0,0,0,0,6,0,27,0,0,0,10
superkingdom:Eukaryota;phylum:Chlorophyta;class:Chlorophyceae;order:Chlamydomonadales;family:Chlamydomonadaceae;genus:Chlamydomonas;species:Chlamydomonas hedleyi;,0,0,0,0,0,7,0,0,1,27,0,0
superkingdom:Eukaryota;phylum:Chlorophyta;class:Chlorophyceae;order:Chlamydomonadales;family:Chlamydomonadaceae;genus:Chlamydomonas;species:Chlamydomonas sp. CCAP 11/151;,0,0,0,0,0,13,0,0,0,0,0,0
superkingdom:Eukaryota;phylum:Chlorophyta;class:Chlorophyceae;order:Chlamydomonadales;family:Chlamydomonadaceae;genus:Chlamydomonas;species:Chlamydomonas sp. UWO 241;,0,0,0,0,0,17,17,0,0,0,1,0
superkingdom:Eukaryota;phylum:Chlorophyta;class:Chlorophyceae;order:Chlamydomonadales;family:Chlamydomonadaceae;genus:Chlamydomonas;species:Chlamydomonas splendida;,0,0,0,0,0,2146,0,0,0,0,0,0
superkingdom:Eukaryota;phylum:Chlorophyta;class:Chlorophyceae;order:Chlamydomonadales;family:Dunaliellaceae;genus:Dunaliella;species:Dunaliella salina;,0,0,0,0,0,0,0,0,0,77,0,19
superkingdom:Eukaryota;phylum:Chlorophyta;class:Chlorophyceae;order:Sphaeropleales;family:NA;genus:NA;species:Sphaeropleales sp. LBA 61;,0,0,0,0,0,0,56,11,50,167,105,241
superkingdom:Eukaryota;phylum:Chlorophyta;class:Chlorophyceae;order:Sphaeropleales;family:Scenedesmaceae;genus:Pectinodesmus;species:Pectinodesmus regularis;,272,179,279,0,1113,589,1295,769,323,1740,391,3458
superkingdom:Eukaryota;phylum:Chlorophyta;class:Chlorophyceae;order:Sphaeropleales;family:Selenastraceae;genus:Monoraphidium;species:Pectinodesmus regularis;,0,0,0,0,240,0,1032,0,0,0,0,0
superkingdom:Eukaryota;phylum:Chlorophyta;class:Chlorophyceae;order:Sphaeropleales;family:Selenastraceae;genus:Monoraphidium;species:Selenastrum capricornutum;,0,0,0,0,0,0,370,0,0,576,0,580
superkingdom:Eukaryota;phylum:Chlorophyta;class:Chlorophyceae;order:Sphaeropleales;family:Selenastraceae;genus:Nephrochlamys;species:Nephrochlamys subsolitaria;,0,28,24,0,70,4,0,18,0,17,1,0
superkingdom:Eukaryota;phylum:Chlorophyta;class:Chlorophyceae;order:Sphaeropleales;family:Selenastraceae;genus:Pectinodesmus;species:Pectinodesmus regularis;,0,0,0,0,0,0,0,95,58,0,0,0
superkingdom:Eukaryota;phylum:Chlorophyta;class:NA;order:Pyramimonadales;family:NA;genus:Pyramimonas;species:Pyramimonas parkeae;,0,0,0,0,171,0,103,46,0,0,0,0
superkingdom:Eukaryota;phylum:Chlorophyta;class:NA;order:Pyramimonadales;family:NA;genus:Pyramimonas;species:Pyramimonas tetrarhynchus;,0,0,0,0,0,327,0,93,0,0,0,0
superkingdom:Eukaryota;phylum:Chlorophyta;class:Trebouxiophyceae;order:NA;family:NA;genus:Dictyosphaerium;species:Dictyosphaerium sp. YN29-3;,0,0,0,0,0,0,0,0,120,701,0,2345
superkingdom:Eukaryota;phylum:Chlorophyta;class:Trebouxiophyceae;order:NA;family:NA;genus:Dictyosphaerium;species:Trebouxiophyceae sp. MCWWW2;,0,0,0,0,0,0,0,0,0,0,113,0
superkingdom:Eukaryota;phylum:Chlorophyta;class:Ulvophyceae;order:Ulvales;family:NA;genus:Pseudendoclonium;species:Pseudendoclonium arthropyreniae;,0,0,0,0,1,0,0,0,0,0,0,0
superkingdom:Eukaryota;phylum:Streptophyta;class:Liliopsida;order:Poales;family:Poaceae;genus:Paspalum;species:Paspalum thunbergii;,0,0,0,17,384,0,0,0,0,0,0,0
superkingdom:Eukaryota;phylum:Streptophyta;class:Liliopsida;order:Zingiberales;family:Musaceae;genus:Musa;species:Musa banksii;,0,0,0,0,0,76,0,0,0,0,0,0
superkingdom:Eukaryota;phylum:Streptophyta;class:NA;order:Araucariales;family:Podocarpaceae;genus:Afrocarpus;species:Afrocarpus gracilior;,0,0,0,0,0,0,1157,0,0,14,83,303
superkingdom:Eukaryota;phylum:Streptophyta;class:NA;order:Araucariales;family:Podocarpaceae;genus:Afrocarpus;species:Afrocarpus usambarensis;,0,0,0,0,0,0,174,123,0,0,1,0
superkingdom:Eukaryota;phylum:Streptophyta;class:NA;order:Caryophyllales;family:Chenopodiaceae;genus:Atriplex;species:Atriplex amnicola;,0,0,0,0,0,0,24,161,13,0,178,0
superkingdom:Eukaryota;phylum:Streptophyta;class:NA;order:Caryophyllales;family:Chenopodiaceae;genus:Salicornia;species:Salicornia dolichostachya;,11,0,0,0,0,0,6,9,0,29,0,0
superkingdom:Eukaryota;phylum:Streptophyta;class:NA;order:Fagales;family:Betulaceae;genus:Alnus;species:Alnus rhombifolia;,0,0,0,0,0,0,0,8,0,0,0,0
superkingdom:Eukaryota;phylum:Streptophyta;class:NA;order:Malpighiales;family:Salicaceae;genus:Salix;species:Salix herbacea;,0,0,0,0,203,0,0,40,25,103,0,729
superkingdom:Eukaryota;phylum:Streptophyta;class:NA;order:Myrtales;family:Myrtaceae;genus:Eucalyptus;species:Eucalyptus macarthurii;,0,0,0,0,418,0,0,0,0,0,498,0
Unclassified,39,26,1,0,140,6,329,106,89,553,69,917
