sum.taxonomy,082618_M,082618_MS,082618_P,082618_U,112818_M,112818_MS,112818_P,112818_U,112917_C,112917_M,112917_MS,112917_U
not_found,0.007054702618563375,0.015033073154579187,0.1170059370613041,0.05495503198586605,0.069610614264298,0.5577125597443582,0.13484969199192418,0.9486118073230032,1,0.2889191385899782,0.31218325044640927,0.954375982207613
superkingdom:Eukaryota;phylum:Annelida;class:Clitellata;order:Haplotaxida;family:Enchytraeidae;genus:NA;species:Enchytraeidae sp. En_570;,0,0,0,0,1,0,0,0,0,0,0,0
superkingdom:Eukaryota;phylum:Annelida;class:Clitellata;order:Haplotaxida;family:Naididae;genus:Nais;species:Nais elinguis;,0,0,0,0,0,0,0,0,0,0,1,0
superkingdom:Eukaryota;phylum:Annelida;class:Clitellata;order:Haplotaxida;family:Naididae;genus:Paranais;species:Paranais frici;,0,0,0,0,0,0,0,0,0,0,1,0
superkingdom:Eukaryota;phylum:Annelida;class:Clitellata;order:Hirudinida;family:Piscicolidae;genus:Myzobdella;species:Myzobdella lugubris;,0.6581493085140312,0,1,0.9298296652937643,0,0,0,0,0,0,0,0
superkingdom:Eukaryota;phylum:Annelida;class:Phascolosomatidea;order:Phascolosomatida;family:Phascolosomatidae;genus:NA;species:NA;,0,0,0,0,0,0,0,1,0,0,0,0
superkingdom:Eukaryota;phylum:Arthropoda;class:Arachnida;order:Araneae;family:Agelenidae;genus:Agelenopsis;species:Agelenopsis aperta;,0,0,0,0,0,0,0,0,0,1,0.7888992047738381,0
superkingdom:Eukaryota;phylum:Arthropoda;class:Arachnida;order:Araneae;family:Antrodiaetidae;genus:Antrodiaetus;species:Antrodiaetus unicolor;,0,0,0,0,1,0,0,0,0,0,0,0
superkingdom:Eukaryota;phylum:Arthropoda;class:Arachnida;order:Araneae;family:Leptonetidae;genus:Neoleptoneta;species:Neoleptoneta capilla;,0,0,1,0,0,0,0,0,0,0,0,0
superkingdom:Eukaryota;phylum:Arthropoda;class:Arachnida;order:Araneae;family:Leptonetidae;genus:Neoleptoneta;species:Neoleptoneta sp. undet. JL-2011;,0.1532281649301718,0.3142739601702796,0.21341532896709922,0.19843990390203647,0,0,0,0,0,1,0,0
superkingdom:Eukaryota;phylum:Arthropoda;class:Arachnida;order:Araneae;family:NA;genus:NA;species:Araneae sp. BOLD:AAD7570;,1,0,0,0,0,0,0,0,0,0,0,0
superkingdom:Eukaryota;phylum:Arthropoda;class:Arachnida;order:Araneae;family:Theridiidae;genus:Theridion;species:Theridion albidum;,0,0,0,0,0,0,0,0,0,0,1,0
superkingdom:Eukaryota;phylum:Arthropoda;class:Arachnida;order:Araneae;family:Thomisidae;genus:Ozyptila;species:Ozyptila arctica;,0,0,0,0,0,0,1,0,0,0,0,0
superkingdom:Eukaryota;phylum:Arthropoda;class:Arachnida;order:Scorpiones;family:Buthidae;genus:Tityus;species:Tityus bahiensis;,0,0,1,0,0,0,0,0,0,0,0,0
superkingdom:Eukaryota;phylum:Arthropoda;class:Gastropoda;order:Nudibranchia;family:Aeolidiidae;genus:Aeolidia;species:Aeolidia papillosa;,0,0,0,0,0,0,0,0,0,1,0,0
superkingdom:Eukaryota;phylum:Arthropoda;class:Hexanauplia;order:Calanoida;family:Clausocalanidae;genus:Clausocalanus;species:Clausocalanus furcatus;,0,0,0,0,0,0,0,1,0,0,0,0
superkingdom:Eukaryota;phylum:Arthropoda;class:Hexanauplia;order:Calanoida;family:Temoridae;genus:Eurytemora;species:Eurytemora carolleeae;,0,0,0,0,0,0,1,0.8289941581696817,0,0.14887957076254651,0.4164170931167354,0.11154693993763733
superkingdom:Eukaryota;phylum:Arthropoda;class:Hexanauplia;order:Cyclopoida;family:Cyclopidae;genus:Diacyclops;species:Diacyclops arenosus;,0,0,0,0,0,0,0,1,0,0,0,0
superkingdom:Eukaryota;phylum:Arthropoda;class:Hexanauplia;order:Harpacticoida;family:Harpacticidae;genus:Zaus;species:Zaus sp. FHL 1;,0,0,0,0,0,0,0,1,0,0,0,0
superkingdom:Eukaryota;phylum:Arthropoda;class:Hexanauplia;order:Sessilia;family:Chthamalidae;genus:Chthamalus;species:Chthamalus fissus;,0,0,0,0,0,1,0,0,0,0,0,0
superkingdom:Eukaryota;phylum:Arthropoda;class:Insecta;order:Coleoptera;family:Cerambycidae;genus:Monochamus;species:Monochamus scutellatus;,0,1,0,0,0,0,0,0,0,0,0,0
superkingdom:Eukaryota;phylum:Arthropoda;class:Insecta;order:Coleoptera;family:Chrysomelidae;genus:Lilioceris;species:Lilioceris merdigera;,0,1,0,0.6314233091234093,0,0,0,0,0,0,0,0
superkingdom:Eukaryota;phylum:Arthropoda;class:Insecta;order:Coleoptera;family:Latridiidae;genus:Melanophthalma;species:Melanophthalma sp. BOLD-2016;,0.47885592435891444,1,0.6790741709922985,0.6314233091234093,0,0,0,0,0,0,0,0
superkingdom:Eukaryota;phylum:Arthropoda;class:Insecta;order:Diptera;family:Carnidae;genus:Meoneura;species:Meoneura sp. JWDCD337-10;,0.9918322168733484,0.9761958378913933,0.9904470859465572,1,0.006262211243250562,0.010995518884170292,0.0030539974464882623,0.00606768592802096,0,0,0,0
superkingdom:Eukaryota;phylum:Arthropoda;class:Insecta;order:Diptera;family:Ceratopogonidae;genus:Forcipomyia;species:Forcipomyia sp. BIOUG21198-B07;,0,1,0,0,0,0,0,0,0,0,0,0
superkingdom:Eukaryota;phylum:Arthropoda;class:Insecta;order:Diptera;family:Ceratopogonidae;genus:Forcipomyia;species:Forcipomyia sp. BOLD-2016;,1,0,0,0,0,0,0,0,0,0,0,0
superkingdom:Eukaryota;phylum:Arthropoda;class:Insecta;order:Diptera;family:Chironomidae;genus:Chironomus;species:Chironomus acidophilus;,0,0,0,0,0.6989611997598771,1,0.8332478381402132,0,0,0,0,0
superkingdom:Eukaryota;phylum:Arthropoda;class:Insecta;order:Diptera;family:Chironomidae;genus:Chironomus;species:Chironomus flaviplumus;,0,0,0,0,1,0,0,0,0,0,0,0
superkingdom:Eukaryota;phylum:Arthropoda;class:Insecta;order:Diptera;family:Chironomidae;genus:Chironomus;species:Chironomus kiiensis;,0,0,0,0,1,0,0,0,0,0,0,0
superkingdom:Eukaryota;phylum:Arthropoda;class:Insecta;order:Diptera;family:Chironomidae;genus:Chironomus;species:Cryptochironomus sp. BOLD:AAI6006;,0,0,0,0,1,0,0,0,0,0,0,0
superkingdom:Eukaryota;phylum:Arthropoda;class:Insecta;order:Diptera;family:Chironomidae;genus:NA;species:Chironomidae sp. BOLD-2016;,0,0,0,0,1,0,0,0,0,0,0,0
superkingdom:Eukaryota;phylum:Arthropoda;class:Insecta;order:Diptera;family:Chironomidae;genus:NA;species:Chironomidae sp. BOLD:AAU4880;,0,0,0,0,1,0,0.5158306016371444,0.42733003026152644,0,0,0,0
superkingdom:Eukaryota;phylum:Arthropoda;class:Insecta;order:Diptera;family:Chironomidae;genus:NA;species:Chironomidae sp. BOLD:ACA4657;,0,0,0,0,0,0,0,1,0,0,0,0
superkingdom:Eukaryota;phylum:Arthropoda;class:Insecta;order:Diptera;family:Chironomidae;genus:NA;species:Chironomidae sp. BOLD:ACG6191;,0,0,0,0,0,0,1,0,0,0,0,0
superkingdom:Eukaryota;phylum:Arthropoda;class:Insecta;order:Diptera;family:Chironomidae;genus:NA;species:NA;,0,0,0,0,1,0,0,0,0,0,0,0
superkingdom:Eukaryota;phylum:Arthropoda;class:Insecta;order:Diptera;family:Chironomidae;genus:Orthocladius;species:Orthocladius sp. BIOUG22903-B11;,0.09651925169230573,0.21595949573870335,0.1466525155366748,0.13636185943595489,1,0,0,0,0,0,0,0
superkingdom:Eukaryota;phylum:Arthropoda;class:Insecta;order:Diptera;family:Chironomidae;genus:Orthocladius;species:Orthocladius sp. BOLD:ACI6576;,0.707817069168362,0,0,1,0,0,0,0,0,0,0,0
superkingdom:Eukaryota;phylum:Arthropoda;class:Insecta;order:Diptera;family:Chironomidae;genus:Tanytarsus;species:Tanytarsus oyamai;,0,0,0,0,0,1,0,0,0,0,0,0
superkingdom:Eukaryota;phylum:Arthropoda;class:Insecta;order:Diptera;family:Chironomidae;genus:Tanytarsus;species:Tanytarsus sp. BOLD:AAH2254;,0,0,0,0,1,0,0,0.41222008320832154,0,0,0,0
superkingdom:Eukaryota;phylum:Arthropoda;class:Insecta;order:Diptera;family:Culicidae;genus:Aedes;species:Aedes mcintoshi;,0,0,0,0,0,0,0,0,0,0,1,0
superkingdom:Eukaryota;phylum:Arthropoda;class:Insecta;order:Diptera;family:Drosophilidae;genus:Amiota;species:Amiota curvistyla;,0,0,0,0,0,0,0,0,0,0,1,0
superkingdom:Eukaryota;phylum:Arthropoda;class:Insecta;order:Diptera;family:Heleomyzidae;genus:NA;species:Heleomyzidae sp. BIOUG21511-B11;,0,0,0,0,0,0,0,0,1,0,0,0.4714387381989413
superkingdom:Eukaryota;phylum:Arthropoda;class:Insecta;order:Diptera;family:Heleomyzidae;genus:NA;species:Heleomyzidae sp. BOLD:AAG0460;,0,0,0,0,0,0,0,0,0,1,0.7888992047738381,0
superkingdom:Eukaryota;phylum:Arthropoda;class:Insecta;order:Diptera;family:Mycetophilidae;genus:Mycetophila;species:Mycetophila mohilevensis;,0,0,0,0,0,0,0,0,0,0,0,1
superkingdom:Eukaryota;phylum:Arthropoda;class:Insecta;order:Diptera;family:Mycetophilidae;genus:NA;species:Mycetophilidae sp. BOLD-2016;,0,0,0,1,0,0,0,0,0,0,0,0
superkingdom:Eukaryota;phylum:Arthropoda;class:Insecta;order:Diptera;family:Mycetophilidae;genus:NA;species:Mycetophilidae sp. BOLD:AAG4951;,0,0,1,0,0,0,0,0,0,0,0,0
superkingdom:Eukaryota;phylum:Arthropoda;class:Insecta;order:Diptera;family:Piscicolidae;genus:Myzobdella;species:Myzobdella lugubris;,1,0,0,0,0,0,0,0,0,0,0,0
superkingdom:Eukaryota;phylum:Arthropoda;class:Insecta;order:Diptera;family:Psychodidae;genus:NA;species:Psychodidae sp. BIOUG02405-H11;,0,0,1,0,0,0,0,0,0,0,0,0
superkingdom:Eukaryota;phylum:Arthropoda;class:Insecta;order:Diptera;family:Psychodidae;genus:NA;species:Psychodidae sp. BOLD-2016;,0,0,1,0.9298296652937643,0,0,0,0,0,0,0,0
superkingdom:Eukaryota;phylum:Arthropoda;class:Insecta;order:Diptera;family:Pythiogetonaceae;genus:Pythiogeton;species:Pythiogeton ramosum;,1,0,0,0,0,0,0,0,0,0,0,0
superkingdom:Eukaryota;phylum:Arthropoda;class:Insecta;order:Diptera;family:Sarcophagidae;genus:Sarcophaga;species:Sarcophaga hardyi;,0,0,0,1,0,0,0,0,0,0,0,0
superkingdom:Eukaryota;phylum:Arthropoda;class:Insecta;order:Diptera;family:Sciaridae;genus:Melanophthalma;species:Melanophthalma sp. BOLD-2016;,1,0,0,0,0,0,0,0,0,0,0,0
superkingdom:Eukaryota;phylum:Arthropoda;class:Insecta;order:Diptera;family:Sciaridae;genus:NA;species:Sciaridae sp. BIOUG02438-D10;,0,0,0,1,0,0,0,0,0,0,0,0
superkingdom:Eukaryota;phylum:Arthropoda;class:Insecta;order:Diptera;family:Sciaridae;genus:Pythiogeton;species:Pythiogeton ramosum;,1,0,0,0,0,0,0,0,0,0,0,0
superkingdom:Eukaryota;phylum:Arthropoda;class:Insecta;order:Diptera;family:Sciomyzidae;genus:Pherbellia;species:Pherbellia tenuipes;,0,0,0,0,0,0,0,0,0,1,0,0
superkingdom:Eukaryota;phylum:Arthropoda;class:Insecta;order:Diptera;family:Sciomyzidae;genus:Pteromicra;species:Pteromicra sp. TAW4;,0.4984119984725932,1,0.7697038559979169,0.658648314140159,0,0,0,0,0,0,0,0
superkingdom:Eukaryota;phylum:Arthropoda;class:Insecta;order:Diptera;family:Simuliidae;genus:Metacnephia;species:Metacnephia lyra;,0,1,0,0,0,0,0,0,0,0,0,0
superkingdom:Eukaryota;phylum:Arthropoda;class:Insecta;order:Hemiptera;family:NA;genus:NA;species:Hemiptera sp. BIOUG03768-E03;,0,0,0,0,0,0,0,0,0,0.02525077805194437,1,0
superkingdom:Eukaryota;phylum:Arthropoda;class:Insecta;order:Hymenoptera;family:Braconidae;genus:Allorhogas;species:Allorhogas sp. BOLD:AAM1498;,0.4469321960683202,1,0,0,0,0,0,0,0,0,0,0
superkingdom:Eukaryota;phylum:Arthropoda;class:Insecta;order:Hymenoptera;family:Braconidae;genus:Glyptapanteles;species:Saccorhiza polyschides;,0,0,0,0,0,0,0,1,0,0,0,0
superkingdom:Eukaryota;phylum:Arthropoda;class:Insecta;order:Hymenoptera;family:Braconidae;genus:Jania;species:Jania sagittata;,1,0,0,0,0,0,0,0,0,0,0,0
superkingdom:Eukaryota;phylum:Arthropoda;class:Insecta;order:Hymenoptera;family:Braconidae;genus:NA;species:Microgastrinae sp. NZ_363;,0,0,0,0,0,0,0,0,0,1,0,0
superkingdom:Eukaryota;phylum:Arthropoda;class:Insecta;order:Hymenoptera;family:Braconidae;genus:NA;species:Triculinae sp. Anlac;,0,0,1,0,0,0,0,0,0,0,0,0
superkingdom:Eukaryota;phylum:Arthropoda;class:Insecta;order:Hymenoptera;family:Crabronidae;genus:Crossocerus;species:Crossocerus annulipes;,0,0,0,0,0,0,0,0,0,1,0.3005330303900336,0
superkingdom:Eukaryota;phylum:Arthropoda;class:Insecta;order:Hymenoptera;family:Tenthredinidae;genus:Euura;species:Asilidae sp. TTDBW474-09;,1,0,0,0,0,0,0,0,0,0,0,0
superkingdom:Eukaryota;phylum:Arthropoda;class:Insecta;order:Lepidoptera;family:NA;genus:NA;species:Lepidoptera sp. BOLD:AAE2291;,0,0,1,0,0,0,0,0,0,0,0,0
superkingdom:Eukaryota;phylum:Arthropoda;class:Insecta;order:Lepidoptera;family:Vannellidae;genus:Vannella;species:Vannella sp.;,0,0,0,1,0,0,0,0,0,0,0,0
superkingdom:Eukaryota;phylum:Arthropoda;class:Insecta;order:Neuroptera;family:Coniopterygidae;genus:NA;species:Coniopterygidae sp. BIOUG31037-F10;,1,0,0,0,0,0,0,0,0,0,0,0
superkingdom:Eukaryota;phylum:Arthropoda;class:Insecta;order:Neuroptera;family:Coniopterygidae;genus:NA;species:Coniopterygidae sp. BOLD:ACG8842;,0,0,1,0.9298296652937643,0,0,0,0,0,0,0,0
superkingdom:Eukaryota;phylum:Arthropoda;class:Insecta;order:Pythiales;family:Pythiogetonaceae;genus:Pythiogeton;species:Pythiogeton ramosum;,0,0,0,1,0,0,0,0,0,0,0,0
superkingdom:Eukaryota;phylum:Arthropoda;class:Insecta;order:Pythiales;family:Valvatidae;genus:Valvata;species:Valvata japonica;,1,0,0,0,0,0,0,0,0,0,0,0
superkingdom:Eukaryota;phylum:Arthropoda;class:Insecta;order:Trombidiformes;family:Eupodidae;genus:NA;species:Eupodidae sp. BOLD:ACC0268;,0,0,1,0,0,0,0,0,0,0,0,0
superkingdom:Eukaryota;phylum:Arthropoda;class:Malacostraca;order:Amphipoda;family:NA;genus:NA;species:NA;,0,0,0,0,0,0,0,0,0,0,1,0
superkingdom:Eukaryota;phylum:Arthropoda;class:Malacostraca;order:Amphipoda;family:Niphargidae;genus:Niphargus;species:Niphargus tridentinus;,0,0,0,0,0,0,0,1,0,0,0,0
superkingdom:Eukaryota;phylum:Arthropoda;class:Malacostraca;order:Decapoda;family:Callianassidae;genus:Corallianassa;species:Corallianassa coutierei;,0,0,0,0,0,0,0,1,0,0,0,0
superkingdom:Eukaryota;phylum:Arthropoda;class:Malacostraca;order:Decapoda;family:Diogenidae;genus:Dardanus;species:Dardanus insignis;,0,0,0,0,0,0,0,0,0,0,1,0
superkingdom:Eukaryota;phylum:Arthropoda;class:Oomycetes;order:Peronosporales;family:Peronosporaceae;genus:Nothophytophthora;species:Opisthopatus cinctipes;,0,0,0,0,0,0,0,0,0,0,1,0
superkingdom:Eukaryota;phylum:Arthropoda;class:Oomycetes;order:Pythiales;family:Pythiogetonaceae;genus:Pythiogeton;species:Pythiogeton ramosum;,0,1,0,0,0,0,0,0,0,0,0,0
superkingdom:Eukaryota;phylum:Arthropoda;class:Ostracoda;order:Podocopida;family:Cyprididae;genus:Bennelongia;species:Bennelongia timmsi;,0,0,0,0,1,0,0,0,0,0,0,0
superkingdom:Eukaryota;phylum:Arthropoda;class:Ostracoda;order:Podocopida;family:NA;genus:NA;species:Podocopida sp. BIOUG21718-F09;,0,0,1,0,0,0,0,0,0,0,0,0
superkingdom:Eukaryota;phylum:Ascomycota;class:Dothideomycetes;order:Capnodiales;family:Cladosporiaceae;genus:Cladosporium;species:Cladosporium herbarum;,0,0,0,0,0,0,0,0,0,0,1,0
superkingdom:Eukaryota;phylum:Ascomycota;class:Dothideomycetes;order:Capnodiales;family:Mycosphaerellaceae;genus:Sphaerulina;species:Sphaerulina musiva;,0,0,0,0,0,0,0,0,0,0,1,0
superkingdom:Eukaryota;phylum:Ascomycota;class:Eurotiomycetes;order:Chaetothyriales;family:Herpotrichiellaceae;genus:Cladophialophora;species:Cladophialophora bantiana;,0,0,0,1,0,0,0,0,0,0,0,0
superkingdom:Eukaryota;phylum:Ascomycota;class:Eurotiomycetes;order:Eurotiales;family:Aspergillaceae;genus:Aspergillus;species:Aspergillus terreus;,0,0,0,0,0,0,0,0,0,0,0,1
superkingdom:Eukaryota;phylum:Ascomycota;class:Lecanoromycetes;order:Lecanorales;family:Parmeliaceae;genus:Hypogymnia;species:Hypogymnia vittata;,0,0,1,0,0,0,0,0,0,0,0,0
superkingdom:Eukaryota;phylum:Ascomycota;class:Leotiomycetes;order:Helotiales;family:Chaetomellaceae;genus:Synchaetomella;species:Synchaetomella acerina;,0,0,0,1,0,0,0,0,0,0,0,0
superkingdom:Eukaryota;phylum:Ascomycota;class:Leotiomycetes;order:Helotiales;family:Helotiaceae;genus:Cairneyella;species:Cairneyella variabilis;,1,0,0,0,0,0,0,0,0,0,0,0
superkingdom:Eukaryota;phylum:Ascomycota;class:Leotiomycetes;order:NA;family:Pseudeurotiaceae;genus:Pseudogymnoascus;species:Pseudogymnoascus sp. BM-2009-4;,0,0,0,0,0,1,0,0,0,0,0,0
superkingdom:Eukaryota;phylum:Ascomycota;class:NA;order:NA;family:NA;genus:Arthrosporium;species:Arthrosporium sp. 'hyalospora';,0,0,0,0,1,0,0,0,0,0,0,0
superkingdom:Eukaryota;phylum:Ascomycota;class:Saccharomycetes;order:Saccharomycetales;family:Debaryomycetaceae;genus:Candida;species:Candida bohioensis;,0,0,0,0,0,0,0,0,0,0.6537212596647267,0.4219528760944811,1
superkingdom:Eukaryota;phylum:Ascomycota;class:Saccharomycetes;order:Saccharomycetales;family:Metschnikowiaceae;genus:Clavispora;species:Clavispora lusitaniae;,0,0,0,0,0,0,0,0,0,1,0,0
superkingdom:Eukaryota;phylum:Ascomycota;class:Sordariomycetes;order:Glomerellales;family:Glomerellaceae;genus:Colletotrichum;species:Arthrinium arundinis;,0,0,1,0,0,0,0,0,0,0,0,0
superkingdom:Eukaryota;phylum:Ascomycota;class:Sordariomycetes;order:Glomerellales;family:Glomerellaceae;genus:Colletotrichum;species:Colletotrichum chlorophyti;,1,0,0,0,0,0,0,0,0,0,0,0
superkingdom:Eukaryota;phylum:Ascomycota;class:Sordariomycetes;order:Glomerellales;family:Glomerellaceae;genus:Colletotrichum;species:Colletotrichum incanum;,0,0,0,0,0,0,0,0,0,1,0,0
superkingdom:Eukaryota;phylum:Ascomycota;class:Sordariomycetes;order:Glomerellales;family:Glomerellaceae;genus:Colletotrichum;species:Mimeoma maculata;,0,0,1,0,0,0,0,0,0,0,0,0
superkingdom:Eukaryota;phylum:Ascomycota;class:Sordariomycetes;order:Hemiptera;family:NA;genus:Tetracladium;species:Hemiptera sp. BIOUG03768-E03;,0,0,0,0,0,0,0,0,0,0,1,0
superkingdom:Eukaryota;phylum:Ascomycota;class:Sordariomycetes;order:Hypocreales;family:Nectriaceae;genus:Fusarium;species:Fusarium oxysporum;,0,0,0,0,0,0,1,0,0,0,0,0
superkingdom:Eukaryota;phylum:Ascomycota;class:Sordariomycetes;order:Hypocreales;family:Nectriaceae;genus:Thelonectria;species:Thelonectria veuillotiana;,0,0,0,0,0,0,0,0,0,0,0,1
superkingdom:Eukaryota;phylum:Ascomycota;class:Sordariomycetes;order:Sordariales;family:NA;genus:Madurella;species:Madurella mycetomatis;,1,0,0,0,0,0,0,0,0,0,0,0
superkingdom:Eukaryota;phylum:Ascomycota;class:Sordariomycetes;order:Xylariales;family:Apiosporaceae;genus:Arthrinium;species:Arthrinium arundinis;,0,0,0,0,0,0,0,0,0,0,1,0
superkingdom:Eukaryota;phylum:Bacillariophyta;class:Bacillariophyceae;order:Bacillariales;family:Bacillariaceae;genus:Cylindrotheca;species:Cylindrotheca closterium;,0.005489344575163471,0,0,0.0013371233346601455,0.5279352950277654,0.5713199276928812,0.559596987565691,0.35510229082080685,1,0.2479649392482314,0.2293424171464805,0.4479035516237077
superkingdom:Eukaryota;phylum:Bacillariophyta;class:Bacillariophyceae;order:Bacillariales;family:Bacillariaceae;genus:Cylindrotheca;species:Cylindrotheca fusiformis;,0,0,0,0,0,0,0,1,0,0,0,0
superkingdom:Eukaryota;phylum:Bacillariophyta;class:Bacillariophyceae;order:Bacillariales;family:Bacillariaceae;genus:Nitzschia;species:Asterionellopsis tropicalis;,0,0,0,0,1,0,0,0.39273792426361254,0,0,0,0
superkingdom:Eukaryota;phylum:Bacillariophyta;class:Bacillariophyceae;order:Bacillariales;family:Bacillariaceae;genus:Nitzschia;species:Nitzschia alba;,0,0,0,0,0,0,0,0,0,1,0,0
superkingdom:Eukaryota;phylum:Bacillariophyta;class:Bacillariophyceae;order:Bacillariales;family:Bacillariaceae;genus:Nitzschia;species:Nitzschia frustulum;,0,0,0,0,0,0,0,1,0,0,0,0
superkingdom:Eukaryota;phylum:Bacillariophyta;class:Bacillariophyceae;order:Bacillariales;family:Bacillariaceae;genus:Pseudo-nitzschia;species:Cylindrotheca fusiformis;,0,0,0,0,0,0,0,1,0,0,0,0
superkingdom:Eukaryota;phylum:Bacillariophyta;class:Bacillariophyceae;order:Bacillariales;family:Bacillariaceae;genus:Pseudo-nitzschia;species:Pseudo-nitzschia cuspidata;,0,0,0,0,0.2692040127255156,0,0,1,0,0,0,0
superkingdom:Eukaryota;phylum:Bacillariophyta;class:Bacillariophyceae;order:Bacillariales;family:Bacillariaceae;genus:Pseudo-nitzschia;species:Pseudo-nitzschia lineola;,0,0,0,0,0.20918040946821537,0,0.7481064357959536,1,0,0,0,0
superkingdom:Eukaryota;phylum:Bacillariophyta;class:Bacillariophyceae;order:Cymbellales;family:Cymbellaceae;genus:Encyonema;species:Encyonema sp. WJS-2015a;,0,0,0,0,0,0,1,0,0,0,0,0
superkingdom:Eukaryota;phylum:Bacillariophyta;class:Bacillariophyceae;order:Naviculales;family:Bacillariaceae;genus:Navicula;species:Navicula sp. BOLD:AAO6951;,0,0,0,0,0,0,0,1,0,0,0,0
superkingdom:Eukaryota;phylum:Bacillariophyta;class:Bacillariophyceae;order:Naviculales;family:Naviculaceae;genus:Fistulifera;species:Fistulifera pelliculosa;,0,0,0,0,0.4670239393368357,0,0.3608565184306037,0.16789802684208566,1,0.42309935215756717,0.6652933819678257,0.9300200562651842
superkingdom:Eukaryota;phylum:Bacillariophyta;class:Bacillariophyceae;order:Naviculales;family:Naviculaceae;genus:Navicula;species:Navicula cryptocephala;,0,0,0,0,0.4005078321730316,0.7866670365738123,0.544891764310214,1,0,0,0,0
superkingdom:Eukaryota;phylum:Bacillariophyta;class:Bacillariophyceae;order:Naviculales;family:Naviculaceae;genus:Navicula;species:Navicula sp. BOLD:AAO6951;,0,0,0,0,0,0,0,1,0,0,0,0
superkingdom:Eukaryota;phylum:Bacillariophyta;class:Bacillariophyceae;order:Naviculales;family:Pinnulariaceae;genus:Pinnularia;species:Pinnularia acrosphaeria;,0,0,0,0,1,0,0,0.3281497245173421,0,0,0,0
superkingdom:Eukaryota;phylum:Bacillariophyta;class:Bacillariophyceae;order:Naviculales;family:Pleurosigmataceae;genus:Pleurosigma;species:Pleurosigma strigosum;,0,0,0,0,0,0,1,0.7663376229591823,0,0,0,0
superkingdom:Eukaryota;phylum:Bacillariophyta;class:Bacillariophyceae;order:Naviculales;family:Sellaphoraceae;genus:Sellaphora;species:Sellaphora pupula;,0,0,0,0,1,0,0,0,0,0,0.025214302856685536,0
superkingdom:Eukaryota;phylum:Bacillariophyta;class:Bacillariophyceae;order:Naviculales;family:Sellaphoraceae;genus:Sellaphora;species:Sellaphora seminulum;,0,0,0,1,0,0,0,0,0,0,0,0
superkingdom:Eukaryota;phylum:Bacillariophyta;class:Coscinodiscophyceae;order:Chaetocerotales;family:Chaetocerotaceae;genus:Chaetoceros;species:Chaetoceros socialis;,0,0,0,0,0,0,0,0,0.14689349898267726,0,1,0
superkingdom:Eukaryota;phylum:Bacillariophyta;class:Coscinodiscophyceae;order:Chaetocerotales;family:Chaetocerotaceae;genus:Chaetoceros;species:Chaetoceros sp. MBTD-CMFRI-S062;,0,0,0,0,0.17725040948861606,0,0,0.23151820839191983,0.8866734224994294,0.7642420963037415,0.5758261351797667,1
superkingdom:Eukaryota;phylum:Bacillariophyta;class:Coscinodiscophyceae;order:Chaetocerotales;family:Chaetocerotaceae;genus:Chaetoceros;species:Cylindrotheca closterium;,0,0,0,0,0,0,0,1,0,0,0,0
superkingdom:Eukaryota;phylum:Bacillariophyta;class:Coscinodiscophyceae;order:Coscinodiscales;family:Coscinodiscaceae;genus:Coscinodiscus;species:Coscinodiscus sp. MBTD-CMFRI-S025;,0,0,0,0,0.49541755367595697,1,0,0.21343447452374611,0.18165866817120901,0,0.00624580411945192,0
superkingdom:Eukaryota;phylum:Bacillariophyta;class:Coscinodiscophyceae;order:Melosirales;family:Melosiraceae;genus:Melosira;species:Melosira nummuloides;,0,0,0,0,0,0,1,0,0,0,0,0
superkingdom:Eukaryota;phylum:Bacillariophyta;class:Coscinodiscophyceae;order:Thalassiosirales;family:Skeletonemataceae;genus:Skeletonema;species:Cyclotella cryptica;,1.3267251091725874e-4,0,2.0158421379611654e-4,0,1,0.21829154413727922,0.7576058789407532,0.52794441727021,0.18863587520987699,0.2266951092277276,0.1785912030744895,0.190727023531705
superkingdom:Eukaryota;phylum:Bacillariophyta;class:Coscinodiscophyceae;order:Thalassiosirales;family:Skeletonemataceae;genus:Skeletonema;species:Skeletonema grethae;,0,0,0,0,0,0,0,0,0,0,0,1
superkingdom:Eukaryota;phylum:Bacillariophyta;class:Coscinodiscophyceae;order:Thalassiosirales;family:Skeletonemataceae;genus:Skeletonema;species:Skeletonema menzelii;,0,0,0,0,1,0,0,0.7613073608802335,0,0,0,0
superkingdom:Eukaryota;phylum:Bacillariophyta;class:Coscinodiscophyceae;order:Thalassiosirales;family:Skeletonemataceae;genus:Skeletonema;species:Skeletonema pseudocostatum;,0,0,0,0,0,0,0,0,1,0,0,0.4714387381989413
superkingdom:Eukaryota;phylum:Bacillariophyta;class:Coscinodiscophyceae;order:Thalassiosirales;family:Skeletonemataceae;genus:Skeletonema;species:Thalassiosira sp. A11 LG-2014;,0,0,0,0,0,0,0,0.43455959888539814,1,0,0,0
superkingdom:Eukaryota;phylum:Bacillariophyta;class:Coscinodiscophyceae;order:Thalassiosirales;family:Stephanodiscaceae;genus:Cyclotella;species:Cyclotella cryptica;,0.5158248195183219,1,0.3741795310947572,0.3195213319814839,0.0709715283618918,0.09025651639893734,0.07520604716748124,0.05603230054574807,0.1105203666085296,0.04335064284121137,0.03419928766386633,0.0521035821792096
superkingdom:Eukaryota;phylum:Bacillariophyta;class:Coscinodiscophyceae;order:Thalassiosirales;family:Stephanodiscaceae;genus:Stephanodiscus;species:Stephanodiscus cf. jamsranii;,0,0,0,0,0,0,0,1,0,0,0,0
superkingdom:Eukaryota;phylum:Bacillariophyta;class:Coscinodiscophyceae;order:Thalassiosirales;family:Thalassiosiraceae;genus:Thalassiosira;species:Thalassiosira pseudonana;,0,0,0,0,1,0,0.879900431806125,0.7267024808402228,0.28440024706103656,0.29896337558258956,0.11968607394959173,0.337874779917164
superkingdom:Eukaryota;phylum:Bacillariophyta;class:Fragilariophyceae;order:Fragilariales;family:Fragilariaceae;genus:Asterionellopsis;species:Asterionellopsis tropicalis;,0,0,0,0,1,0,0,0,0,0,0,0
superkingdom:Eukaryota;phylum:Bacillariophyta;class:Mediophyceae;order:Cymatosirales;family:Cymatosiraceae;genus:Minutocellus;species:Minutocellus polymorphus;,0,0,0,0,1,0,0,0,0,0,0,0
superkingdom:Eukaryota;phylum:Bacillariophyta;class:Mediophyceae;order:Lithodesmiales;family:Lithodesmiaceae;genus:Ditylum;species:Ditylum brightwellii;,0,0,0,0,0,0,0,0,0,0.8528090978353481,0.7876453687096981,1
superkingdom:Eukaryota;phylum:Bacillariophyta;class:Mediophyceae;order:Triceratiales;family:Plagiogrammaceae;genus:Dimeregramma;species:Dimeregramma acutum;,0,0,0,0,0,0,1,0,0,0,0,0
superkingdom:Eukaryota;phylum:Bacillariophyta;class:Oomycetes;order:Pythiales;family:Pythiaceae;genus:Pythium;species:Sellaphora pupula;,0,0,0,0,0,0,1,0,0,0,0,0
superkingdom:Eukaryota;phylum:Basidiomycota;class:Agaricomycetes;order:Agaricales;family:Desmacellidae;genus:Desmacella;species:Desmacella cf. annexa BELUM<GBR> Mc4240;,0,0,0,0,0,0,0,1,0,0,0,0
superkingdom:Eukaryota;phylum:Basidiomycota;class:Agaricomycetes;order:Agaricales;family:Entolomataceae;genus:Entoloma;species:Entoloma sp. JS06-22;,0,0,0,0,0,0,0,0,0,1,0,0
superkingdom:Eukaryota;phylum:Basidiomycota;class:Agaricomycetes;order:Agaricales;family:Psathyrellaceae;genus:Psathyrella;species:Psathyrella cf. hydrophila TRTC155552;,0,0,0,0,0,0,0,0,0.9574341998214114,0.8216347004264896,0.5974450531567744,1
superkingdom:Eukaryota;phylum:Basidiomycota;class:Agaricomycetes;order:Agaricales;family:Schizophyllaceae;genus:Schizophyllum;species:Schizophyllum commune;,0,0,0,0,0,0,1,0,0,0,0,0
superkingdom:Eukaryota;phylum:Basidiomycota;class:Agaricomycetes;order:Boletales;family:Boletaceae;genus:Boletus;species:Boletus variipes;,0,0,0,0,0,0,0,0,1,0,0,0
superkingdom:Eukaryota;phylum:Basidiomycota;class:Agaricomycetes;order:Thelephorales;family:Thelephoraceae;genus:Sarcodon;species:Sarcodon imbricatus;,0,0,0,1,0,0,0,0,0,0,0,0
superkingdom:Eukaryota;phylum:Basidiomycota;class:Oomycetes;order:Agaricales;family:Psathyrellaceae;genus:Psathyrella;species:Psathyrella candolleana;,0,0,0,0,0,0,0,1,0,0,0,0
superkingdom:Eukaryota;phylum:Blastocladiomycota;class:Blastocladiomycetes;order:Blastocladiales;family:Blastocladiaceae;genus:Blastocladiella;species:Blastocladiella emersonii;,0,0,0,0,0,0,0,0,1,0,0,0
superkingdom:Eukaryota;phylum:Chlorophyta;class:Chlorodendrophyceae;order:Chlorodendrales;family:Chlorodendraceae;genus:Tetraselmis;species:Tetraselmis aff. maculata;,0,0,0.10250441820731823,0,0,1,0.8332478381402132,0,0,0.4803048529991988,0.37891211658008317,0.57728332820768
superkingdom:Eukaryota;phylum:Chlorophyta;class:Mamiellophyceae;order:Mamiellales;family:Mamiellaceae;genus:Mantoniella;species:Mantoniella squamata;,0,0,0,0,0,0,0,0,1,0.4278995068822073,0.3481186300994437,0.4714387381989413
superkingdom:Eukaryota;phylum:Chlorophyta;class:Mamiellophyceae;order:Mamiellales;family:Mamiellaceae;genus:Micromonas;species:Micromonas pusilla;,0,0,0,0,0.8534534283739387,0.7271606101863389,1,0.5878623691895233,0,0,0.014009998266069685,0.00711487622355758
superkingdom:Eukaryota;phylum:Chlorophyta;class:NA;order:Pyramimonadales;family:NA;genus:Cymbomonas;species:Cymbomonas tetramitiformis;,0,0,0,0,0,0,0,0,0,1,0,0.9134517935811253
superkingdom:Eukaryota;phylum:Chlorophyta;class:Phaeophyceae;order:Ectocarpales;family:Chordariaceae;genus:Stictyosiphon;species:Stictyosiphon soriferus;,0,0,0,0,0,0,0,0,0.7945680606678399,0.764493401578109,0.5519973690547475,1
superkingdom:Eukaryota;phylum:Chlorophyta;class:Trebouxiophyceae;order:Chlorellales;family:Chlorellaceae;genus:Prototheca;species:Prototheca wickerhamii;,0,0,0,0,0,0,0,0,0.8512575589499688,0.7334815090496574,0.7340993019772404,1
superkingdom:Eukaryota;phylum:Chlorophyta;class:Trebouxiophyceae;order:NA;family:NA;genus:Picochlorum;species:Picochlorum sp. 'soloecismus';,0,0,0,0,0,0,0.06804722918977098,0,1,0.6275859434272374,0.030943878231061664,0
superkingdom:Eukaryota;phylum:Chordata;class:Actinopteri;order:Mugiliformes;family:Mugilidae;genus:Mugil;species:Mugil cephalus;,0.2782453306385974,0.24575021471495212,0,1,0,0,0,0,0,0.6777001801365493,0,0
superkingdom:Eukaryota;phylum:Chordata;class:Aves;order:Charadriiformes;family:Laridae;genus:Larus;species:Larus fuscus;,0,0,0,0,0.35397849526010217,0,0,0,0,1,0,0
superkingdom:Eukaryota;phylum:Chordata;class:Aves;order:Gruiformes;family:Rallidae;genus:Fulica;species:Fulica alai;,0,0,0,0,1,0.056105669796809976,0.6077490648528074,0,0,0.6197999861361032,0.2763685352330827,0
superkingdom:Eukaryota;phylum:Chordata;class:Aves;order:Pelecaniformes;family:Sulidae;genus:Sula;species:Sula sula;,0,0,0,0,0,0,0,1,0,0,0.7120744383608051,0
superkingdom:Eukaryota;phylum:Cnidaria;class:Anthozoa;order:Scleractinia;family:NA;genus:Oulastrea;species:Oulastrea crispata;,0,0,0,1,0,0,0,0,0,0,0,0
superkingdom:Eukaryota;phylum:Cnidaria;class:Eustigmatophyceae;order:Eustigmatales;family:Monodopsidaceae;genus:Nannochloropsis;species:Nannochloropsis gaditana;,0,0,0,0,0,0,0,0,1,0,0,0
superkingdom:Eukaryota;phylum:Cnidaria;class:Hydrozoa;order:Anthoathecata;family:Corynidae;genus:Sarsia;species:Sarsia lovenii;,0,0,0,0,1,0,0.7601944824580267,0.3310032003827102,0,0,0,0
superkingdom:Eukaryota;phylum:Cnidaria;class:Hydrozoa;order:Anthoathecata;family:Corynidae;genus:Sarsia;species:Sarsia sp. SL-2013;,0,1,0,0,0,0,0,0,0,0,0,0
superkingdom:Eukaryota;phylum:Cnidaria;class:Hydrozoa;order:Anthoathecata;family:Corynidae;genus:Sarsia;species:Sarsia tubulosa;,0,0,0,0,0,0,1,0,0,0,0.4547411937195119,0
superkingdom:Eukaryota;phylum:Cnidaria;class:Hydrozoa;order:Anthoathecata;family:Corynidae;genus:Turritopsis;species:Turritopsis rubra;,0,0,1,0,0,0,0,0,0,0,0,0
superkingdom:Eukaryota;phylum:Cnidaria;class:Hydrozoa;order:Anthoathecata;family:Oceaniidae;genus:Turritopsis;species:Turritopsis rubra;,0.4469321960683202,1,0,0.6314233091234093,0,0,0,0,0,0,0,0
superkingdom:Eukaryota;phylum:Cnidaria;class:Hydrozoa;order:Anthoathecata;family:Tubulariidae;genus:Ectopleura;species:Ectopleura larynx;,0,0,0,0,0,0,0,1,0,0,0,0
superkingdom:Eukaryota;phylum:Cnidaria;class:Hydrozoa;order:Anthoathecata;family:Tubulariidae;genus:Ectopleura;species:Ectopleura viridis;,0,0,0,0,0,0,0,1,0,0,0,0
superkingdom:Eukaryota;phylum:Cnidaria;class:Hydrozoa;order:Anthoathecata;family:Zancleidae;genus:Zanclea;species:Zanclea implexa;,0,0,0,0,0,0,0,0,0,0,1,0
superkingdom:Eukaryota;phylum:Cnidaria;class:Hydrozoa;order:Leptothecata;family:Aglaopheniidae;genus:Aglaophenia;species:Aglaophenia octodonta;,0,0,0,0,0,0,0,1,0,0,0,0
superkingdom:Eukaryota;phylum:Cnidaria;class:Hydrozoa;order:Leptothecata;family:Aglaopheniidae;genus:Aglaophenia;species:Aglaophenia tubulifera;,0,0,0,0,0,0,0,0,0,0.46564496015789664,1,0
superkingdom:Eukaryota;phylum:Cnidaria;class:Hydrozoa;order:Leptothecata;family:Campanulariidae;genus:Campanularia;species:Campanularia sp. MZUSP 2761;,0,0,0,0,0,0,0,0,0,0,1,0
superkingdom:Eukaryota;phylum:Cnidaria;class:Hydrozoa;order:Leptothecata;family:Campanulariidae;genus:Eucheilota;species:Eucheilota maculata;,0,0,0,0,0,0,0,1,0,0,0,0
superkingdom:Eukaryota;phylum:Cnidaria;class:Hydrozoa;order:Leptothecata;family:Plumulariidae;genus:Plumularia;species:Plumularia setacea;,0,0,0,0,0,0,0,1,0,0,0,0
superkingdom:Eukaryota;phylum:Cnidaria;class:Hydrozoa;order:Siphonophorae;family:Agalmatidae;genus:Halistemma;species:Halistemma rubrum;,0,0,0,0,0,0,0,1,0,0,0,0
superkingdom:Eukaryota;phylum:Cnidaria;class:Hydrozoa;order:Siphonophorae;family:Prayidae;genus:Amphicaryon;species:Amphicaryon acaule;,0,0,0,0,0,0,0,1,0,0,0,0
superkingdom:Eukaryota;phylum:Cnidaria;class:Hydrozoa;order:Trachymedusae;family:Rhopalonematidae;genus:Colobonema;species:Colobonema sericeum;,0,0,0,0,0,0,1,0,0,0,0,0
superkingdom:Eukaryota;phylum:Cnidaria;class:Oomycetes;order:Peronosporales;family:Peronosporaceae;genus:Phytophthora;species:Phytophthora iranica;,0,0,0,0,0,0,0,0,0,0,0,1
superkingdom:Eukaryota;phylum:Cnidaria;class:Scyphozoa;order:Semaeostomeae;family:Pelagiidae;genus:Chrysaora;species:Chrysaora pacifica;,0,0,0,0,0,0,0,1,0,0,0,0
superkingdom:Eukaryota;phylum:Cnidaria;class:Scyphozoa;order:Semaeostomeae;family:Pelagiidae;genus:Pelagia;species:Pelagia sp. Plg_P5;,0.8534637416445888,1,0.7826617563979033,0.8347630188411175,0,0,0,0,0,0,0,0
superkingdom:Eukaryota;phylum:Gastrotricha;class:NA;order:Chaetonotida;family:Chaetonotidae;genus:Chaetonotus;species:Chaetonotus sp. 1 TK-2012;,0,0,0,0,0,0,0,1,0,0,0,0
superkingdom:Eukaryota;phylum:Mollusca;class:Gastropoda;order:Coleoptera;family:Valvatidae;genus:Valvata;species:Valvata japonica;,0,0,1,0,0,0,0,0,0,0,0,0
superkingdom:Eukaryota;phylum:Mollusca;class:Gastropoda;order:Diptera;family:Valvatidae;genus:Valvata;species:Valvata japonica;,1,0,0,0,0,0,0,0,0,0,0,0
superkingdom:Eukaryota;phylum:Mollusca;class:Gastropoda;order:NA;family:Cerithiidae;genus:Cerithium;species:NA;,1,0,0,0,0,0,0,0,0,0,0,0
superkingdom:Eukaryota;phylum:Mollusca;class:Gastropoda;order:NA;family:Valvatidae;genus:Megalovalvata;species:Megalovalvata baicalensis;,1,0,0,0,0,0,0,0,0,0,0,0
superkingdom:Eukaryota;phylum:Mollusca;class:Gastropoda;order:NA;family:Valvatidae;genus:Valvata;species:Valvata japonica;,0.6581493085140312,0,1,0.9298296652937643,0,0,0,0,0,0,0,0
superkingdom:Eukaryota;phylum:Mollusca;class:Gastropoda;order:Pythiales;family:Valvatidae;genus:Valvata;species:Pythiogeton ramosum;,0,0,1,0,0,0,0,0,0,0,0,0
superkingdom:Eukaryota;phylum:Mollusca;class:Gastropoda;order:Pythiales;family:Valvatidae;genus:Valvata;species:Valvata japonica;,0,0,0,1,0,0,0,0,0,0,0,0
superkingdom:Eukaryota;phylum:Mucoromycota;class:Mucoromycetes;order:Mucorales;family:Lichtheimiaceae;genus:Lichtheimia;species:Lichtheimia ramosa;,1,0,0,0,0,0,0,0,0,0,0,0
superkingdom:Eukaryota;phylum:NA;class:Bacillariophyceae;order:Peridiniales;family:NA;genus:NA;species:Durinskia baltica;,0,0,0,0,0,0,1,0,0,0,0,0
superkingdom:Eukaryota;phylum:NA;class:Chrysophyceae;order:Chromulinales;family:Chromulinaceae;genus:Pedospumella;species:Pedospumella sinomuralis;,0,0,0.019532400500032465,0.0012972718156663528,0.5232397838866399,0,0.11341204864961828,0,1,0.29908392616454277,0.3506972866186988,0.560488277636519
superkingdom:Eukaryota;phylum:NA;class:Chrysophyceae;order:Chromulinales;family:Chromulinaceae;genus:Pedospumella;species:Pedospumella sp.;,0.18727886824798778,0.3142739601702796,0.21341532896709922,0.19843990390203647,0,0,0,0,0,1,0,0
superkingdom:Eukaryota;phylum:NA;class:Chrysophyceae;order:Chromulinales;family:Dinobryaceae;genus:Dinobryon;species:Dinobryon sp.;,1,0,0,0,0,0,0,0,0,0,0,0
superkingdom:Eukaryota;phylum:NA;class:Chrysophyceae;order:Chromulinales;family:Dinobryaceae;genus:Poteriospumella;species:Poteriospumella lacustris;,1,0,0,0,0,0,0,0,0,0,0,0
superkingdom:Eukaryota;phylum:NA;class:Chrysophyceae;order:Chromulinales;family:Paraphysomonadaceae;genus:Paraphysomonas;species:Paraphysomonas sp.;,0,0.2836692600594432,0.1926324676108651,0,0,0,0,1,0,0,0,0
superkingdom:Eukaryota;phylum:NA;class:Chrysophyceae;order:NA;family:NA;genus:NA;species:Chrysophyceae sp.;,0,0,0,0,0,0,1,0,0,0,0,0
superkingdom:Eukaryota;phylum:NA;class:Dictyochophyceae;order:Florenciellales;family:NA;genus:Pseudochattonella;species:Pseudochattonella verruculosa;,0,0,0,0,0,0,0,0,0,0.8320088759369249,0,1
superkingdom:Eukaryota;phylum:NA;class:Eustigmatophyceae;order:Eustigmatales;family:Eustigmataceae;genus:Eustigmatos;species:Eustigmatos magnus;,0,0,0,0,0,0,0,1,0,0,0,0
superkingdom:Eukaryota;phylum:NA;class:Eustigmatophyceae;order:Eustigmatales;family:Monodopsidaceae;genus:Microchloropsis;species:Microchloropsis salina;,0,0,0,0,0,0,0,0,0,0.9929447622626258,1,0
superkingdom:Eukaryota;phylum:NA;class:Eustigmatophyceae;order:Eustigmatales;family:Monodopsidaceae;genus:Monodus;species:Monodus sp. CCMP505;,0,0,0,0,0,0,0,0,0.9803061140739034,1,0.9413944671506741,0.7340885334849397
superkingdom:Eukaryota;phylum:NA;class:Eustigmatophyceae;order:Eustigmatales;family:Monodopsidaceae;genus:Nannochloropsis;species:Monodus sp. CCMP505;,0,0,0,0,0.1406556433045098,0,0.09028861195087917,0,0.7724174981756434,1,0.8016076182336397,0.7141461798443709
superkingdom:Eukaryota;phylum:NA;class:Eustigmatophyceae;order:Eustigmatales;family:Monodopsidaceae;genus:Nannochloropsis;species:Nannochloropsis gaditana;,0,0,0,0,0,0,0,0.04816907275018604,0,1,0.8574991356237371,0.052256967596174216
superkingdom:Eukaryota;phylum:NA;class:Eustigmatophyceae;order:Eustigmatales;family:Monodopsidaceae;genus:Nannochloropsis;species:Nannochloropsis oceanica;,0,0,0,0,0,0,0,0,0,0,1,0
superkingdom:Eukaryota;phylum:NA;class:Eustigmatophyceae;order:Goniochloridales;family:NA;genus:Trachydiscus;species:Trachydiscus minutus;,0,0,0,0,0,1,0,0.5321243063468738,0,0.4803048529991988,0,0.57728332820768
superkingdom:Eukaryota;phylum:NA;class:Haptophyceae;order:Phaeocystales;family:Phaeocystaceae;genus:Phaeocystis;species:Phaeocystis pouchetii;,0.0023541280900562372,0,0,0,1,0,0,0.31566402768204804,0,0,0,0
superkingdom:Eukaryota;phylum:NA;class:Labyrinthulomycetes;order:NA;family:Thraustochytriaceae;genus:Thraustochytrium;species:Thraustochytrium aff. aureum SEK 621;,1,0,0,0,0,0,0,0,0,0,0,0
superkingdom:Eukaryota;phylum:NA;class:NA;order:Choanoflagellida;family:Salpingoecidae;genus:Monosiga;species:Monosiga brevicollis;,0,0,0,0,0,0,0,0,0,0.8320088759369249,0.656371140591415,1
superkingdom:Eukaryota;phylum:NA;class:NA;order:Euglyphida;family:Cyphoderiidae;genus:Cyphoderia;species:Cyphoderia cf. compressa;,0,0,0,0,0,0,0,1,0,0,0,0
superkingdom:Eukaryota;phylum:NA;class:NA;order:Longamoebia;family:Acanthamoebidae;genus:Acanthamoeba;species:Acanthamoeba palestinensis;,0,0,1,0,0,0,0,0,0,0,0,0
superkingdom:Eukaryota;phylum:NA;class:NA;order:Longamoebia;family:Acanthamoebidae;genus:Acanthamoeba;species:Acanthamoeba sp.;,0,0,0,0,1,0,0,0.6280785727261927,0.08759527609479928,0.5153771623849119,0,0.20647903217160027
superkingdom:Eukaryota;phylum:NA;class:NA;order:NA;family:Histionidae;genus:Reclinomonas;species:Reclinomonas americana;,0,0,0,0,1,0,0.9536985325382515,0,0,0,0,0
superkingdom:Eukaryota;phylum:NA;class:NA;order:NA;family:Paramoebidae;genus:Cunea;species:Cunea thuwala;,0,0,0,0.009172431188142486,0.40359223140912825,0,0,0,0,0.8320088759369249,0.6199060772252253,1
superkingdom:Eukaryota;phylum:NA;class:NA;order:NA;family:Vannellidae;genus:Vannella;species:Vannella sp.;,0.5051156504432369,0.5896612563373445,1,0.491706534867211,0,0,0,0,0,0,0,0
superkingdom:Eukaryota;phylum:NA;class:Oomycetes;order:Choanoflagellida;family:Salpingoecidae;genus:Monosiga;species:Monosiga brevicollis;,0,0,0,0,0,0,0,1,0,0,0,0
superkingdom:Eukaryota;phylum:NA;class:Oomycetes;order:Chromulinales;family:Paraphysomonadaceae;genus:Paraphysomonas;species:Paraphysomonas sp.;,1,0,0,0,0,0,0,0,0,0,0,0
superkingdom:Eukaryota;phylum:NA;class:Oomycetes;order:Lagenidiales;family:Lagenidiaceae;genus:Lagenidium;species:Lagenidium sp. PWL-2010h;,0,0,1,0,0,0,0,0,0,0,0,0
superkingdom:Eukaryota;phylum:NA;class:Oomycetes;order:Lagenidiales;family:Lagenidiaceae;genus:Lagenidium;species:Lagenidium sp. SL10;,0.09651925169230573,0,0,0,1,0,0,0,0,0,0,0
superkingdom:Eukaryota;phylum:NA;class:Oomycetes;order:Lagenidiales;family:NA;genus:Paralagenidium;species:Paralagenidium karlingii;,0,0,0,0,0,0,0,0,0,0,1,0
superkingdom:Eukaryota;phylum:NA;class:Oomycetes;order:Leptomitales;family:NA;genus:Apodachlya;species:Apodachlya brachynema;,0,0,0,0,1,0,0,0,0,0,0,0
superkingdom:Eukaryota;phylum:NA;class:Oomycetes;order:Myzocytiopsidales;family:Myzocytiopsidaceae;genus:Chlamydomyzium;species:Chlamydomyzium dictyuchoides;,0,0,0,0,0,0,0,0,1,0,0,0
superkingdom:Eukaryota;phylum:NA;class:Oomycetes;order:NA;family:NA;genus:Haptoglossa;species:Haptoglossa sp. DM2 4/12;,1,0,0.602031195609609,0.07996949501572678,0,0,0,0,0,0,0,0
superkingdom:Eukaryota;phylum:NA;class:Oomycetes;order:Peronosporales;family:Peronosporaceae;genus:Nothophytophthora;species:Nothophytophthora vietnamensis;,0,0,0,0,0,0,0,0,0,1,0,0
superkingdom:Eukaryota;phylum:NA;class:Oomycetes;order:Peronosporales;family:Peronosporaceae;genus:Peronospora;species:Peronospora effusa;,0,0,0,0,0,0,0,1,0,0,0,0
superkingdom:Eukaryota;phylum:NA;class:Oomycetes;order:Peronosporales;family:Peronosporaceae;genus:Peronospora;species:Peronospora ranunculi;,0,0,0,0,0,0,0,0,0,1,0.7888992047738382,0
superkingdom:Eukaryota;phylum:NA;class:Oomycetes;order:Peronosporales;family:Peronosporaceae;genus:Phytophthora;species:Achlya recurva;,0,0,0,0,0,0,0,0,0,0,1,0
superkingdom:Eukaryota;phylum:NA;class:Oomycetes;order:Peronosporales;family:Peronosporaceae;genus:Phytophthora;species:Phytophthora cinnamomi;,0,0,0,0,0,0,0,0.5480380721675189,0,0,1,0
superkingdom:Eukaryota;phylum:NA;class:Oomycetes;order:Peronosporales;family:Peronosporaceae;genus:Phytophthora;species:Phytophthora cyperi;,0,0,1,0,0,0,0,0,0,0,0,0
superkingdom:Eukaryota;phylum:NA;class:Oomycetes;order:Peronosporales;family:Peronosporaceae;genus:Phytophthora;species:Phytophthora himalsilva;,0,0,0,0,1,0,0.45883706734444707,0.6447652797912117,0,0,0,0
superkingdom:Eukaryota;phylum:NA;class:Oomycetes;order:Peronosporales;family:Peronosporaceae;genus:Phytophthora;species:Phytophthora multivesiculata;,0,0,0,0,0,1,0,0,0,0,0,0
superkingdom:Eukaryota;phylum:NA;class:Oomycetes;order:Peronosporales;family:Peronosporaceae;genus:Phytophthora;species:Phytophthora quercetorum;,0,0,0,0,0,0,0,1,0,0,0,0
superkingdom:Eukaryota;phylum:NA;class:Oomycetes;order:Peronosporales;family:Peronosporaceae;genus:Phytophthora;species:Phytophthora rhizophorae;,0,0,0,0,0,0,0,0,0,0,1,0
superkingdom:Eukaryota;phylum:NA;class:Oomycetes;order:Peronosporales;family:Peronosporaceae;genus:Phytophthora;species:Phytophthora sp. LS-2018;,0,0,0,1,0,0,0,0,0,0,0,0
superkingdom:Eukaryota;phylum:NA;class:Oomycetes;order:Peronosporales;family:Peronosporaceae;genus:Phytophthora;species:Phytophthora sp. TB-2018b;,1,0,0,0,0,0,0,0,0,0,0,0
superkingdom:Eukaryota;phylum:NA;class:Oomycetes;order:Peronosporales;family:Peronosporaceae;genus:Phytophthora;species:Phytophthora sulawesiensis;,1,0,0,0,0,0,0,0,0,0,0,0
superkingdom:Eukaryota;phylum:NA;class:Oomycetes;order:Peronosporales;family:Peronosporaceae;genus:Phytophthora;species:Phytophthora taxon paludosa;,1,0,0,0.5550263761210562,0,0,0,0,0,0,0,0
superkingdom:Eukaryota;phylum:NA;class:Oomycetes;order:Peronosporales;family:Peronosporaceae;genus:Pseudoperonospora;species:Pseudoperonospora cannabina;,0,0,0,0,0,0,0,0,0,0,0,1
superkingdom:Eukaryota;phylum:NA;class:Oomycetes;order:Peronosporales;family:Salisapiliaceae;genus:Salisapilia;species:Salisapilia tartarea;,0,0,1,0,0,0,0,0,0,0,0,0
superkingdom:Eukaryota;phylum:NA;class:Oomycetes;order:Peronosporales;family:Vannellidae;genus:Vannella;species:Vannella sp.;,0,0,0,1,0,0,0,0,0,0,0,0
superkingdom:Eukaryota;phylum:NA;class:Oomycetes;order:Pythiales;family:Pythiaceae;genus:Globisporangium;species:Globisporangium spinosum;,0,0,0,0,0,0,0,0,0,0,0,1
superkingdom:Eukaryota;phylum:NA;class:Oomycetes;order:Pythiales;family:Pythiaceae;genus:Phytopythium;species:Phytopythium chamaehyphon;,0.4469321960683202,1,0,0,0,0,0,0,0,0,0,0
superkingdom:Eukaryota;phylum:NA;class:Oomycetes;order:Pythiales;family:Pythiaceae;genus:Phytopythium;species:Phytopythium ostracodes;,1,0,0,0,0,0,0,0,0,0,0,0
superkingdom:Eukaryota;phylum:NA;class:Oomycetes;order:Pythiales;family:Pythiaceae;genus:Phytopythium;species:Phytopythium vexans;,1,0,0,0,0,0,0,0,0,0,0,0
superkingdom:Eukaryota;phylum:NA;class:Oomycetes;order:Pythiales;family:Pythiaceae;genus:Pythium;species:Peronospora sherardiae;,0,0,0,0,0,0,0,1,0,0,0,0
superkingdom:Eukaryota;phylum:NA;class:Oomycetes;order:Pythiales;family:Pythiaceae;genus:Pythium;species:Phytopythium sp. SL-2017a;,1,0,0,0.2581756285786916,0,0,0,0,0,0,0,0
superkingdom:Eukaryota;phylum:NA;class:Oomycetes;order:Pythiales;family:Pythiaceae;genus:Pythium;species:Pythium aff. perplexum;,0,1,0,0,0,0,0,0,0,0,0,0
superkingdom:Eukaryota;phylum:NA;class:Oomycetes;order:Pythiales;family:Pythiaceae;genus:Pythium;species:Pythium aphanidermatum;,0,0,0,0,0,0,1,0.11859987021987346,0,0,0,0
superkingdom:Eukaryota;phylum:NA;class:Oomycetes;order:Pythiales;family:Pythiaceae;genus:Pythium;species:Pythium camurandrum;,0,0,0,1,0,0,0,0,0,0,0,0
superkingdom:Eukaryota;phylum:NA;class:Oomycetes;order:Pythiales;family:Pythiaceae;genus:Pythium;species:Pythium capillosum;,0,0,0,0,0,0,1,0,0,0,0,0
superkingdom:Eukaryota;phylum:NA;class:Oomycetes;order:Pythiales;family:Pythiaceae;genus:Pythium;species:Pythium carolinianum;,0,0,0,0,0,0,0,0,0,1,0,0
superkingdom:Eukaryota;phylum:NA;class:Oomycetes;order:Pythiales;family:Pythiaceae;genus:Pythium;species:Pythium contiguanum;,0,0,0,0,1,0,0,0,0,0,0,0
superkingdom:Eukaryota;phylum:NA;class:Oomycetes;order:Pythiales;family:Pythiaceae;genus:Pythium;species:Pythium dissimile;,1,0,0,0,0,0,0,0,0,0,0,0
superkingdom:Eukaryota;phylum:NA;class:Oomycetes;order:Pythiales;family:Pythiaceae;genus:Pythium;species:Pythium glomeratum;,0,0,0,0,0,0,0,1,0,0,0,0
superkingdom:Eukaryota;phylum:NA;class:Oomycetes;order:Pythiales;family:Pythiaceae;genus:Pythium;species:Pythium helicandrum;,0,0,0,0,0,0,0,0,0,1,0,0
superkingdom:Eukaryota;phylum:NA;class:Oomycetes;order:Pythiales;family:Pythiaceae;genus:Pythium;species:Pythium heterothallicum;,0,0,0,0,0,0,0,0,0,1,0,0
superkingdom:Eukaryota;phylum:NA;class:Oomycetes;order:Pythiales;family:Pythiaceae;genus:Pythium;species:Pythium inflatum;,0.6581493085140312,0,1,0,0,0,0,0,0,0,0,0
superkingdom:Eukaryota;phylum:NA;class:Oomycetes;order:Pythiales;family:Pythiaceae;genus:Pythium;species:Pythium irregulare;,0,0,0,0,1,0,0,0,0,0,0,0
superkingdom:Eukaryota;phylum:NA;class:Oomycetes;order:Pythiales;family:Pythiaceae;genus:Pythium;species:Pythium rhizosaccharum;,1,0,0,0,0,0,0,0,0,0,0,0
superkingdom:Eukaryota;phylum:NA;class:Oomycetes;order:Pythiales;family:Pythiaceae;genus:Pythium;species:Pythium selbyi;,1,0,0,0,0,0,0,0,0,0,0,0
superkingdom:Eukaryota;phylum:NA;class:Oomycetes;order:Pythiales;family:Pythiaceae;genus:Pythium;species:Pythium sp. CAL-2011c;,0.1267809253554424,0.2836692600594432,0,0,0,0,0,1,0,0,0,0
superkingdom:Eukaryota;phylum:NA;class:Oomycetes;order:Pythiales;family:Pythiaceae;genus:Salispina;species:Salispina sp.;,0.6581493085140312,0,1,0.9298296652937643,0,0,0,0,0,0,0,0
superkingdom:Eukaryota;phylum:NA;class:Oomycetes;order:Pythiales;family:Pythiogetonaceae;genus:Pythiogeton;species:Pythiogeton ramosum;,0.6581493085140312,0,1,0.9298296652937643,0,0,0,0,0,0,0,0
superkingdom:Eukaryota;phylum:NA;class:Oomycetes;order:Saprolegniales;family:Saprolegniaceae;genus:Achlya;species:Achlya colorata;,0.707817069168362,0,0,1,0,0,0,0,0,0,0,0
superkingdom:Eukaryota;phylum:NA;class:Oomycetes;order:Saprolegniales;family:Saprolegniaceae;genus:Achlya;species:Achlya hypogyna;,0.6581493085140312,0,1,0,0,0,0,0,0,0,0,0
superkingdom:Eukaryota;phylum:NA;class:Oomycetes;order:Saprolegniales;family:Saprolegniaceae;genus:Achlya;species:Achlya racemosa;,0.6581493085140312,0,1,0,0,0,0,0,0,0,0,0
superkingdom:Eukaryota;phylum:NA;class:Oomycetes;order:Saprolegniales;family:Saprolegniaceae;genus:Achlya;species:Achlya sparrowii;,1,0,0,0,0,0,0,0,0,0,0,0
superkingdom:Eukaryota;phylum:NA;class:Oomycetes;order:Saprolegniales;family:Saprolegniaceae;genus:Achlya;species:Albugo candida;,0.4469321960683202,1,0.6790741709922985,0,0,0,0,0,0,0,0,0
superkingdom:Eukaryota;phylum:NA;class:Oomycetes;order:Saprolegniales;family:Saprolegniaceae;genus:Achlya;species:Pythium irregulare;,0,1,0.6790741709922985,0,0,0,0,0,0,0,0,0
superkingdom:Eukaryota;phylum:NA;class:Oomycetes;order:Saprolegniales;family:Saprolegniaceae;genus:Aphanomyces;species:Aphanomyces cladogamus;,0,0,0,0,0,0,0,1,0,0,0,0
superkingdom:Eukaryota;phylum:NA;class:Oomycetes;order:Saprolegniales;family:Saprolegniaceae;genus:Leptolegnia;species:Leptolegnia caudata;,0,0,0,0,0,0,0,1,0,0,0,0
superkingdom:Eukaryota;phylum:NA;class:Oomycetes;order:Saprolegniales;family:Saprolegniaceae;genus:Monosiga;species:Monosiga brevicollis;,0,0,0,0,0,0,0,0,0,0,0,1
superkingdom:Eukaryota;phylum:NA;class:Oomycetes;order:Saprolegniales;family:Saprolegniaceae;genus:Saprolegnia;species:Saprolegnia anisospora;,0,0,0,0,0,1,0,0,0,0,0,0
superkingdom:Eukaryota;phylum:NA;class:Oomycetes;order:Saprolegniales;family:Saprolegniaceae;genus:Saprolegnia;species:Saprolegnia asterophora;,0,0,0,0,0,0,0,1,0,0,0,0
superkingdom:Eukaryota;phylum:NA;class:Oomycetes;order:Saprolegniales;family:Saprolegniaceae;genus:Saprolegnia;species:Saprolegnia monoica;,1,0,0,0,0,0,0,0,0,0,0,0
superkingdom:Eukaryota;phylum:NA;class:Phaeophyceae;order:Ectocarpales;family:Acinetosporaceae;genus:Feldmannia;species:Feldmannia irregularis;,0,0,0,0,0,0,0,1,0,0,0,0
superkingdom:Eukaryota;phylum:NA;class:Phaeophyceae;order:Ectocarpales;family:Chordariaceae;genus:Cladosiphon;species:Cladosiphon umezakii;,1,0.8409577905244093,0.898680853762272,0.8041961836488477,0.28217777652892767,0,0,0,0,0,0,0
superkingdom:Eukaryota;phylum:NA;class:Phaeophyceae;order:Ectocarpales;family:Chordariaceae;genus:Cladothele;species:Cladothele decaisnei;,0,0,0,0,0,1,0,0,0,0,0,0
superkingdom:Eukaryota;phylum:NA;class:Phaeophyceae;order:Ectocarpales;family:Chordariaceae;genus:Dictyosiphon;species:Dictyosiphon ekmanii;,0,0,0,0,0,0,0.46055572099895065,1,0,0,0,0
superkingdom:Eukaryota;phylum:NA;class:Phaeophyceae;order:Ectocarpales;family:Chordariaceae;genus:Eudesme;species:Eudesme sp. JP1;,0,0,0,0,0,0,0,1,0,0,0,0
superkingdom:Eukaryota;phylum:NA;class:Phaeophyceae;order:Ectocarpales;family:Chordariaceae;genus:Laminariocolax;species:Laminariocolax sp.;,0,0,0,0,0,0,0,1,0,0,0,0
superkingdom:Eukaryota;phylum:NA;class:Phaeophyceae;order:Ectocarpales;family:Chordariaceae;genus:NA;species:Chordariaceae sp. 12 AP-2014;,0,0,0,0,0,0,0,0,0,0.8320088759369249,0.656371140591415,1
superkingdom:Eukaryota;phylum:NA;class:Phaeophyceae;order:Ectocarpales;family:Chordariaceae;genus:NA;species:Chordariaceae sp. 2 AP-2014;,0.3395474721398913,1,0.5515323216181104,0.30556187209694596,0,0,0,0,0,0,0,0
superkingdom:Eukaryota;phylum:NA;class:Phaeophyceae;order:Ectocarpales;family:Chordariaceae;genus:NA;species:Chordariaceae sp. 8 AP-2014;,0,0,0,0,0,0,0,0,0,1,0,0
superkingdom:Eukaryota;phylum:NA;class:Phaeophyceae;order:Ectocarpales;family:Chordariaceae;genus:Nannochloropsis;species:Chordariaceae sp. 12 AP-2014;,0,0,0,0,0,0,0,0,0.6638806958906216,1,0.8043451020772907,0.7683283370797264
superkingdom:Eukaryota;phylum:NA;class:Phaeophyceae;order:Ectocarpales;family:Chordariaceae;genus:Punctaria;species:Punctaria sp. 2GWS;,0,1,0,0,0,0,0,0,0,0,0,0
superkingdom:Eukaryota;phylum:NA;class:Phaeophyceae;order:Ectocarpales;family:Chordariaceae;genus:Soranthera;species:Soranthera ulvoidea;,0,0,0,0,0,0,0,0,0,1,0,0
superkingdom:Eukaryota;phylum:NA;class:Phaeophyceae;order:Ectocarpales;family:Chordariaceae;genus:Stictyosiphon;species:Stictyosiphon soriferus;,0,0,0,0,0,0,0,1,0,0,0,0
superkingdom:Eukaryota;phylum:NA;class:Phaeophyceae;order:Ectocarpales;family:Chordariaceae;genus:Stictyosiphon;species:Stictyosiphon tortilis;,0,0,0,0,1,0,0.8613478366500039,0.5784234697190601,0.2740410872239531,0.3147927546783075,0.24632073144538608,0.42449320580530114
superkingdom:Eukaryota;phylum:NA;class:Phaeophyceae;order:Ectocarpales;family:Chordariaceae;genus:Striaria;species:Striaria attenuata;,0,0,0,0,0.010757010419529414,1,0.1144416408218691,0.013586944513229025,0,0,0,0
superkingdom:Eukaryota;phylum:NA;class:Phaeophyceae;order:Ectocarpales;family:Ectocarpaceae;genus:Ectocarpus;species:Ectocarpus sp. 5 AP-2014;,0,0,0,0,0,0,0,0,0,1,0,0
superkingdom:Eukaryota;phylum:NA;class:Phaeophyceae;order:Ectocarpales;family:Ectocarpaceae;genus:Spongonema;species:Spongonema tomentosum;,0,0,0,0,0,0,0,0,0,0,1,0
superkingdom:Eukaryota;phylum:NA;class:Phaeophyceae;order:Ectocarpales;family:NA;genus:NA;species:Ectocarpales sp. 1 DWF-2013;,0,0,0,0,0,1,0,0,0,0,0,0
superkingdom:Eukaryota;phylum:NA;class:Phaeophyceae;order:Ectocarpales;family:Scytosiphonaceae;genus:Petalonia;species:Petalonia fascia;,1,0,0,0.5297979044791901,0,0,0,0,0.48618322191998375,0,0,0
superkingdom:Eukaryota;phylum:NA;class:Phaeophyceae;order:Ectocarpales;family:Scytosiphonaceae;genus:Scytosiphon;species:Scytosiphon lomentaria;,0,0,0,0,0,0,0,0,0,0,1,0
superkingdom:Eukaryota;phylum:NA;class:Phaeophyceae;order:Ectocarpales;family:Scytosiphonaceae;genus:Tronoella;species:Tronoella ryukyuana;,0,0,0,0,0,0,0,0,1,0.3922412146420234,0.3094387823106166,0.4714387381989413
superkingdom:Eukaryota;phylum:NA;class:Phaeophyceae;order:Eustigmatales;family:Monodopsidaceae;genus:Nannochloropsis;species:Spongonema tomentosum;,0,0,0,0,0,0,0,0,0,0,1,0
superkingdom:Eukaryota;phylum:NA;class:Phaeophyceae;order:Fucales;family:Sargassaceae;genus:Bifurcaria;species:Bifurcaria bifurcata;,0,0,0,0,0,0,0,0,0,1,0,0
superkingdom:Eukaryota;phylum:NA;class:Phaeophyceae;order:Fucales;family:Sargassaceae;genus:Cystophora;species:Cystophora siliquosa;,0,0,0,0,0,0,0,0,0,1,0,0
superkingdom:Eukaryota;phylum:NA;class:Phaeophyceae;order:Fucales;family:Sargassaceae;genus:Sargassum;species:Sargassum fusiforme;,0,0,0,0,0.5708070369672436,0,0,0.43455959888539814,1,0,0.3094387823106166,0.4714387381989413
superkingdom:Eukaryota;phylum:NA;class:Phaeophyceae;order:Laminariales;family:Laminariaceae;genus:Saccharina;species:Laminaria rodriguezii;,0,1,0,0,0,0,0,0,0,0,0,0
superkingdom:Eukaryota;phylum:NA;class:Phaeophyceae;order:Laminariales;family:Lessoniaceae;genus:Ecklonia;species:Ecklonia radiata;,0,0,0,0,0,0,0,0,0,0.8320088759369249,0.656371140591415,1
superkingdom:Eukaryota;phylum:NA;class:Phaeophyceae;order:Tilopteridales;family:Tilopteridaceae;genus:Tilopteris;species:Tilopteris mertensii;,0,0,0,0,0,1,0.6943731984501776,0,0,0,0,0
superkingdom:Eukaryota;phylum:NA;class:Raphidophyceae;order:Chattonellales;family:Chattonellaceae;genus:Chattonella;species:Chattonella subsalsa;,0,0,0,0,0.831159983258373,0.1331122480981251,1,0.6786405358247689,0,0,0,0
superkingdom:Eukaryota;phylum:NA;class:Synurophyceae;order:Synurales;family:Mallomonadaceae;genus:Mallomonas;species:Mallomonas sp.;,0,0,0,0,0,0,1,0,0,0,0,0
superkingdom:Eukaryota;phylum:NA;class:Xanthophyceae;order:Eustigmatales;family:Pleurochloridaceae;genus:Monodus;species:Monodus sp. CCMP505;,0,0,0,0,0,0,0,0,0,1,0,0
superkingdom:Eukaryota;phylum:Nematoda;class:Chromadorea;order:Monhysterida;family:Xyalidae;genus:NA;species:Xyalidae sp. 09PROBE-01511;,0,0,0,0,0,0,0,1,0,0,0,0
superkingdom:Eukaryota;phylum:Nemertea;class:Palaeonemertea;order:NA;family:Cephalothricidae;genus:Cephalothrix;species:Cephalothrix sp. 13 HC-2011;,0,1,0,0,0,0,0,0,0,0,0,0
superkingdom:Eukaryota;phylum:Nemertea;class:Pilidiophora;order:Heteronemertea;family:Valenciniidae;genus:Sonnenemertes;species:Sonnenemertes cantelli;,0,0,0,1,0,0,0,0,0,0,0,0
superkingdom:Eukaryota;phylum:Porifera;class:Demospongiae;order:Biemnida;family:Biemnidae;genus:Biemna;species:Biemna ehrenbergi;,0,0,0,0,0,0,0,0,0,0,0,1
superkingdom:Eukaryota;phylum:Porifera;class:Demospongiae;order:Tetractinellida;family:Phymatellidae;genus:Neoaulaxinia;species:Neoaulaxinia sp. 2 AS-2014;,0,0,0,0,0.6101730395167086,0,0,0,1,0,0,0
superkingdom:Eukaryota;phylum:Porifera;class:Homoscleromorpha;order:Homosclerophorida;family:Plakinidae;genus:Plakina;species:Plakina coerulea;,0.8483683003213023,1,0.4378063018573102,0.42725050258051056,0,0,0,0,0,0,0,0
superkingdom:Eukaryota;phylum:Rhodophyta;class:Florideophyceae;order:Ceramiales;family:Ceramiaceae;genus:Monosporus;species:Monosporus indicus;,0,0,0,0,0,0,0,1,0,0,0,0
superkingdom:Eukaryota;phylum:Rhodophyta;class:Florideophyceae;order:Ceramiales;family:Dasyaceae;genus:Dasysiphonia;species:Dasysiphonia japonica;,0,0,0,0,0,0,0,1,0,0,0,0
superkingdom:Eukaryota;phylum:Rhodophyta;class:Florideophyceae;order:Ceramiales;family:Delesseriaceae;genus:Membranoptera;species:Membranoptera tenuis;,0,0,0,0,0.6347914131631662,0,0,1,0,0.15435099356130952,0,0
superkingdom:Eukaryota;phylum:Rhodophyta;class:Florideophyceae;order:Ceramiales;family:Delesseriaceae;genus:Patulophycus;species:Patulophycus eclipes;,0,0,0,0,0,0,0,1,0,0,0,0
superkingdom:Eukaryota;phylum:Rhodophyta;class:Florideophyceae;order:Ceramiales;family:Delesseriaceae;genus:Phycodrys;species:Phycodrys antarctica;,0,0,0,0,0,0,0,0,0,0,1,0
superkingdom:Eukaryota;phylum:Rhodophyta;class:Florideophyceae;order:Ceramiales;family:Rhodomelaceae;genus:Laurencia;species:Laurencia decumbens;,0,0,0,0,0,0,0,0,0,0,0,1
superkingdom:Eukaryota;phylum:Rhodophyta;class:Florideophyceae;order:Ceramiales;family:Rhodomelaceae;genus:Laurencia;species:Laurencia nipponica;,0,0,0,0,0,0,1,0,0,0,0,0
superkingdom:Eukaryota;phylum:Rhodophyta;class:Florideophyceae;order:Ceramiales;family:Rhodomelaceae;genus:Pterosiphonia;species:Pterosiphonia sp. 2SAfr;,0,0,1,0,0,0,0,0,0,0,0,0
superkingdom:Eukaryota;phylum:Rhodophyta;class:Florideophyceae;order:Corallinales;family:Corallinaceae;genus:Jania;species:Jania sagittata;,0.4469321960683202,1,0.6790741709922985,0.6314233091234093,0,0,0,0,0,0,0,0
superkingdom:Eukaryota;phylum:Rhodophyta;class:Florideophyceae;order:Corallinales;family:Corallinaceae;genus:Jania;species:Jania sp. KZN2252_MR;,0,0,0,0,0,0,0,0,0.8291871612909788,1,0.7079418243115299,0.9124571092323982
superkingdom:Eukaryota;phylum:Rhodophyta;class:Florideophyceae;order:Gigartinales;family:Kallymeniaceae;genus:Pugetia;species:Pugetia sp. 1Aus;,0,0,0,0,0,0,0,1,0,0,0,0
superkingdom:Eukaryota;phylum:Rhodophyta;class:Florideophyceae;order:Gigartinales;family:Mychodeaceae;genus:Mychodea;species:Mychodea marginifera;,0,0,0,0,1,0,0,0,0,0,0,0
superkingdom:Eukaryota;phylum:Rhodophyta;class:Florideophyceae;order:Gigartinales;family:NA;genus:Opuntiella;species:Opuntiella sp. 2californica;,0,0,0,0,0,0,0,0,0,0,0,1
superkingdom:Eukaryota;phylum:Rhodophyta;class:Florideophyceae;order:Gigartinales;family:Peyssonneliaceae;genus:Incendia;species:Incendia crenata;,0,0,0,0,1,0,0,0,0,0,0,0
superkingdom:Eukaryota;phylum:Rhodophyta;class:Florideophyceae;order:Gigartinales;family:Peyssonneliaceae;genus:Polystrata;species:Polystrata sp. 1BER;,0,0,0,0,0,0,0,0,0,1,0,0.8457886977603011
superkingdom:Eukaryota;phylum:Rhodophyta;class:Florideophyceae;order:Gracilariales;family:Gracilariaceae;genus:Gracilariopsis;species:Gracilariopsis funicularis;,0,0,0,0,0,0,0,1,0,0,0,0
superkingdom:Eukaryota;phylum:Rhodophyta;class:Florideophyceae;order:Plocamiales;family:Plocamiaceae;genus:Plocamium;species:Plocamium preissianum;,0,1,0,0,0,0,0,0,0,0,0,0
superkingdom:Eukaryota;phylum:Rhodophyta;class:Florideophyceae;order:Tetractinellida;family:Phymatellidae;genus:Neoaulaxinia;species:Callophyllis sp. _2adhaerens;,0,0,0,0,0,0,0,0,0,1,0,0
superkingdom:Eukaryota;phylum:Rhodophyta;class:Oomycetes;order:Ceramiales;family:Pythiaceae;genus:Pythium;species:Pythium splendens;,0,0,0,0,0,0,0,0,0,1,0,0
superkingdom:Eukaryota;phylum:Rhodophyta;class:Oomycetes;order:Gelidiales;family:Pterocladiaceae;genus:Pterocladiella;species:Pterocladiella nana;,0,0,0,0,0,0,0,1,0,0,0,0
superkingdom:Eukaryota;phylum:Rotifera;class:Monogononta;order:Ploima;family:Asplanchnidae;genus:Asplanchna;species:Asplanchna sp. SHHS141029;,0,0,0,0,0,0,0,0,0,0,1,0
superkingdom:Eukaryota;phylum:Rotifera;class:Monogononta;order:Ploima;family:Asplanchnidae;genus:Asplanchna;species:Asplanchna sp. SHYT140802;,0,0,0,0,0,0,0,0,0,0,1,0
superkingdom:Eukaryota;phylum:Rotifera;class:Monogononta;order:Ploima;family:Brachionidae;genus:Asplanchna;species:Asplanchna sp. SHYT140802;,0,0,0,0,0,0,0,0,0,0,1,0
superkingdom:Eukaryota;phylum:Rotifera;class:Monogononta;order:Ploima;family:Brachionidae;genus:Brachionus;species:Brachionidae sp. SHYT150702b;,0,0,0,0,0,0,0,0,1,0,0,0
superkingdom:Eukaryota;phylum:Rotifera;class:Monogononta;order:Ploima;family:Brachionidae;genus:Brachionus;species:Brachionus calyciflorus;,0,0,0,0,0,0,0,0,0,0,1,0.07665551133687841
superkingdom:Eukaryota;phylum:Rotifera;class:Monogononta;order:Ploima;family:Brachionidae;genus:Brachionus;species:Brachionus plicatilis group sp. MEG-2012;,0,0,0,0,0.5181306450374891,0.5961870733450804,1,0.87102095038924,0.38651761574529075,0.46116323088152694,0.43342765800557415,0.6630952047624004
superkingdom:Eukaryota;phylum:Rotifera;class:Monogononta;order:Ploima;family:Brachionidae;genus:Brachionus;species:Brachionus quadridentatus;,0,0,0,0,0,0,0,0,0,0,0.05707575135577522,1
superkingdom:Eukaryota;phylum:Rotifera;class:Monogononta;order:Ploima;family:Brachionidae;genus:Brachionus;species:Brachionus sp. 2 EM-2017;,0,0,0,0,0,0,0,0,0,1,0,0
superkingdom:Eukaryota;phylum:Rotifera;class:Monogononta;order:Ploima;family:Brachionidae;genus:Brachionus;species:Brachionus sp. Almenara;,0,0,0,0,0.6088608394317264,0.8166505339113816,0.6943594815282752,0.447728071578895,1,0.3922412146420234,0.31853992296681116,0.4714387381989413
superkingdom:Eukaryota;phylum:Rotifera;class:Monogononta;order:Ploima;family:Brachionidae;genus:Brachionus;species:Brachionus sp. WM-2017m;,0,0,0,0,0,0,0,0,0,0,1,0
superkingdom:Eukaryota;phylum:Rotifera;class:Monogononta;order:Ploima;family:Brachionidae;genus:NA;species:Brachionidae sp. SHYT150702b;,0,0,0,0,0.21405263886271636,0,0,0.35307967409438595,1,0.7636446147561892,0.7864902383728172,0.7783650000472103
superkingdom:Eukaryota;phylum:Rotifera;class:Monogononta;order:Ploima;family:Brachionidae;genus:Plationus;species:Plationus patulus;,0,0,0,0,0,0,0,0,0.33902282177465104,1,0.4112346918501923,0.1566319214917243
superkingdom:Eukaryota;phylum:Rotifera;class:Monogononta;order:Ploima;family:Euchlanidae;genus:Tripleuchlanis;species:Tripleuchlanis plicata;,0,0,0,0,0,0,0,0,0,0,0,1
superkingdom:Eukaryota;phylum:Rotifera;class:Monogononta;order:Ploima;family:Lepadellidae;genus:NA;species:Lepadellidae sp. SHQC150123a;,0,0,0,0,0,0,0,0.13374738665993022,0,0.12072276744834357,1,0
superkingdom:Eukaryota;phylum:Rotifera;class:Monogononta;order:Ploima;family:Notommatidae;genus:Eosphora;species:Eosphora ehrenbergi;,0,0,0,0,0,0,0,0,0,0,1,0
superkingdom:Eukaryota;phylum:Streptophyta;class:Liliopsida;order:Poales;family:Poaceae;genus:Joinvillea;species:Joinvillea plicata;,0,0,0,0,0,1,0,0,0,0,0,0
superkingdom:Eukaryota;phylum:Streptophyta;class:Zygnemophyceae;order:Zygnematales;family:Mesotaeniaceae;genus:Roya;species:Roya obtusa;,0,0,0,0,0,0,0.8170160069689897,0,0,0.5886855254270695,0.705908585164352,1
Unclassified,0.0027467403518429646,0.0038505878980591495,0.004079473631864872,0.004219424173165032,0.2676165204140513,0.4663414574573048,0.18323047306682316,0.12544327518029658,1,0.3802017467915388,0.29015291323878656,0.476150550906203
