PM001.S45,PM002.S46,PM003.S47,PM004.S48,PM005.S49,PM006.S50,PM007.S51,PM008.S52,PM009.S53,PM010.S54,PM011.S55,PM012.S56,PM013.S57,PM014.S58,PM015.S59,PM016.S60,PM017.S61,PM018.S62,PM019.S63,PM020.S64,PM021.S65,PM022.S66,PM023.S67,RT026.S87,RT243.S71,RT244.S75,RT245.S76,RT246.S72,RT269.S74,RT272.S77,RT273.S69,RT274.S73,RT279.S68,sum.taxonomy
0.18176133402813965,0.6103023516237402,0.7336036721016024,0.3324576296428678,0.031251279950849885,0.5498798864380869,0.09448916408668731,0.10730783794017418,0.41168845681081684,0.3318087631390574,0.23115481010217853,0.8990451127819549,0.8575487160808596,0.9100021614611478,1,0.9680921052631579,0.946578947368421,0.7528961542095813,0.5752361064970813,0.9598066811832812,0.22947368421052633,0.6041633008140186,0.49512994103516056,0,0.1079876160990712,0.09154535274356104,0,0,0.02731829573934837,0,0.10430622009569378,0.009593381446928357,0.13023290986085906,superkingdom:Eukaryota;phylum:Chordata;class:Actinopteri;order:Mugiliformes;family:Mugilidae;genus:Mugil;species:Mugil cephalus;
0,0,0,0.07556068096799108,0.021951398575728656,0,0,0,0,0,0.11537885594489368,0,0,0,0,0,0,0,0.010174047671708323,0,0,0.0038853370757315872,0,0,0.08849426563078061,0.14003746821892146,0,0,0.9664606753884251,0.14874036172405217,0.08547741566609492,1,0.03782621267982361,superkingdom:Eukaryota;phylum:Chordata;class:Actinopteri;order:Cypriniformes;family:Cyprinidae;genus:Cyprinus;species:Cyprinus carpio;
0,0,0,0,0,0,0,0,0,0,0,0,0,0,0,0,0,0,0,0,0,0,0,0,0,0,0,0,1,0,0,0,0,superkingdom:Eukaryota;phylum:Chordata;class:Aves;order:Charadriiformes;family:Laridae;genus:Sterna;species:Sterna hirundo;
0,0,0,0,0,0,0,0,0,0,0,0,0,0,0,0,0,0,0,0,0,0,0,0,0,0,0,0,0,0,0,1,0,superkingdom:Eukaryota;phylum:Chordata;class:Aves;order:Procellariiformes;family:Pelecanoididae;genus:Pelecanoides;species:Pelecanoides georgicus;
0,0,0,0,0,0,0,0,0,0,0,0,0,0,0,0,0,0,0,0,0,0,0,0,0,0,0,0,1,0,0,0,0,superkingdom:Eukaryota;phylum:Chordata;class:Aves;order:Charadriiformes;family:Scolopacidae;genus:Tringa;species:Tringa erythropus;
0,0,0,0,0,0,0,0,0,0,0,0,0,0,0,0,0,0,0,0,0,0,0,0,0,0,0,0,1,0,0,0,0,superkingdom:Eukaryota;phylum:Chordata;class:Aves;order:Charadriiformes;family:Scolopacidae;genus:Tringa;species:Tringa glareola;
0,0,0,0,0,0,0,0,0,0,1,0,0,0,0,0,0,0,0,0,0,0,0,0,0,0,0,0,0,0,0,0,0,superkingdom:Eukaryota;phylum:Chordata;class:Aves;order:Charadriiformes;family:Scolopacidae;genus:Goura;species:Tringa semipalmata;
0,0,0,0,0,0,0,0,0,0,0,0,0,0,0,0,0,0,0,0,0,0,0,0,0,0,0,0,0,0,0,0,1,superkingdom:Eukaryota;phylum:Chordata;class:Actinopteri;order:Cichliformes;family:Cichlidae;genus:Rocio;species:Rocio octofasciata;
0,0,0,0,0,0,0,0,0,0,0,0,0,0,0,0,0,0,0,0,0,0,0,0,0,0,0,0,0,0,0,0,1,superkingdom:Eukaryota;phylum:Chordata;class:Mammalia;order:Didelphimorphia;family:Didelphidae;genus:Tlacuatzin;species:Tlacuatzin canescens;
0,0,0,0,0,0,0,0,0,0,0,0,0,0,0,0,0,0,0,0,0,0,0,0,0,0,0,0,0,1,0,0,0,superkingdom:Eukaryota;phylum:Chordata;class:NA;order:Testudines;family:Geoemydidae;genus:Cyclemys;species:Cyclemys fusca;
0,0,0,1,0,0,0,0,0,0,0,0,0,0,0,0,0,0,0,0,0,0,0,0,0,0,0,0,0,0,0,0,0,superkingdom:Eukaryota;phylum:Chordata;class:Aves;order:Procellariiformes;family:Procellariidae;genus:Aphrodroma;species:Aphrodroma brevirostris;
0,0,0,0,0,0,0,0,0,0,0,0,0,0,0,0,0,0,0,0,0,0,0,0,0,0,0,0,0,0,0,1,0,superkingdom:Eukaryota;phylum:Chordata;class:Aves;order:Charadriiformes;family:Rostratulidae;genus:Nycticryphes;species:Nycticryphes semicollaris;
0,0,0,0,0,0.0487551867219917,0,0,0,0,0,0,0,0,0,0,0,0,0,0,0,0,0,0,0,1,0,0,0,0,0,0,0,superkingdom:Eukaryota;phylum:Chordata;class:Aves;order:Pelecaniformes;family:Pelecanidae;genus:Pelecanus;species:Fulica americana;
0,0,0,0,0,0,0,0,0,0,1,0,0,0,0,0,0,0,0,0,0,0,0,0,0,0,0,0,0,0,0,0,0,superkingdom:Eukaryota;phylum:Chordata;class:Aves;order:Columbiformes;family:Columbidae;genus:Geopelia;species:Geopelia cuneata;
0,0,0,0,0,0,0,0,0,0.15633500357909805,1,0,0,0,0,0,0,0,0,0,0,0,0,0,0,0,0,0,0,0,0,0,0,superkingdom:Eukaryota;phylum:Chordata;class:Aves;order:Columbiformes;family:Columbidae;genus:Leucosarcia;species:Leucosarcia melanoleuca;
0,0,0,0,0,0,0,0,0,0,0,0,0,0,0,0,0,0,0,0,0,0,0,0,0,0,0,0,0,1,0,0,0,superkingdom:Eukaryota;phylum:Chordata;class:Aves;order:Charadriiformes;family:Scolopacidae;genus:Alopecoenas;species:Alopecoenas beccarii;
0,0,0,0,0,0,0,0,0,0,0,0,0,0,0,0,0,0,0,0,0,0,0,0,0,0,0,0,1,0,0,0,0,superkingdom:Eukaryota;phylum:Chordata;class:Aves;order:Charadriiformes;family:Scolopacidae;genus:Podilymbus;species:Podilymbus podiceps;
0,0,0,0,0,0,0,0,0,0,0,0,0,0,0,0,0,0,0,0,0,0,0,0,0,0,0,0,0,0,1,0,0,superkingdom:Eukaryota;phylum:Chordata;class:Aves;order:Pelecaniformes;family:Phalacrocoracidae;genus:Phalacrocorax;species:Phalacrocorax punctatus;
0,0,0,0,0,0,0,0,0,0,0,0,0,0,0,0,0,0,1,0,0,0,0,0,0,0,0,0,0,0,0,0,0,superkingdom:Eukaryota;phylum:Chordata;class:Actinopteri;order:Cyprinodontiformes;family:Poeciliidae;genus:Gambusia;species:Gambusia affinis;
0,0,0,0,0,0,0,0,0,0,1,0,0,0,0,0,0,0,0,0,0,0,0,0,0,0,0,0,0.6341463414634146,0,0,0,0,superkingdom:Eukaryota;phylum:Chordata;class:Aves;order:Charadriiformes;family:Scolopacidae;genus:Limosa;species:Limosa haemastica;
0,0,0,0,0,0,0,0,0,0,0,0,0,0,0,0,0,0,0,0,0,0,0,0,0,0,0,0,0,0,1,0,0.08429118773946359,superkingdom:Eukaryota;phylum:Chordata;class:Actinopteri;order:Blenniiformes;family:Clinidae;genus:Gibbonsia;species:Gibbonsia metzi;
0,0,0,0,0,0,0,0,0,0.06803149606299212,0,0,0,0,0,0,0,0,0,0,0,0,0,0,0,0,0,0,0,0,1,0,0.47540229885057467,superkingdom:Eukaryota;phylum:Chordata;class:Aves;order:Pelecaniformes;family:Phalacrocoracidae;genus:Nannopterum;species:Nannopterum auritus;
0,0,1,0.5288624787775892,0,0,0,0,0,0,0,0.33375000000000005,0,0.47972279260780293,0,0,0,0,0,0,0,0.8274793388429753,0,0,0,0,0,0,0,0,0,0,0,superkingdom:Eukaryota;phylum:Chordata;class:Actinopteri;order:Atheriniformes;family:Atherinopsidae;genus:Menidia;species:Menidia menidia;
0,0,0.0909577314071696,0.09620826259196379,0,0,1,0,0,0,0,0,0,0,0,0,0,0,0,0,0,0.050177095631641085,0.7053941908713693,0,0,0,0,0,0,0,0,0,0,superkingdom:Eukaryota;phylum:Chordata;class:Actinopteri;order:Mugiliformes;family:Mugilidae;genus:Mugil;species:Mugil platanus;
0,0,0.2939934104925234,0.6562416227325529,0.022117550686053655,0.461891242629395,0.2452012383900929,0.340780007572889,0.4867582970164264,0.17631767320950908,0.041642567958357433,0,0,0,0,0,0,0,0,0,0,0,0,0,0.5572755417956656,0.23180291153415453,1,0.4822966507177033,0.04841371721987897,0.32114183764495985,0,0.18060200668896323,0.2676950998185118,superkingdom:Eukaryota;phylum:Chordata;class:Aves;order:Gruiformes;family:Rallidae;genus:Fulica;species:Fulica americana;
0,0,0,0.13638936049801925,0,0,0,0,0,0.1725125268432355,0,0.08607142857142858,0,0,0,0,0,0.21633752244165172,0,0,0,0,1,0,0,0,0,0,0.27990708478513354,0,0,0,0.1154214559386973,Unclassified
0,0,0,0.38483305036785515,0,0,1,0,0,0,0,0,0,0,0,0,0,0,0,0,0,0,0,0,0,0,0,0,0,0,0,0,0.08141762452107279,superkingdom:Eukaryota;phylum:Chordata;class:Aves;order:Gruiformes;family:Rallidae;genus:Fulica;species:Fulica atra;
0,0.07801418439716312,0.43552701979668274,0.5805036785512168,0.10700389105058365,0,0,0,0.11093418259023353,0.16141732283464566,0.29716117216117216,0.3761607142857143,0.1522491349480969,0.3133983572895277,0,0,0,0.019748653500897665,0.13018485121731288,0.2636226034308779,0.1669642857142857,1,0.1825726141078838,0,0,0,0,0,0,0,0,0,0,superkingdom:Eukaryota;phylum:Chordata;class:Actinopteri;order:Atheriniformes;family:Atherinopsidae;genus:Chirostoma;species:Chirostoma humboldtianum;
0,0,0,1,0,0,0,0,0,0,0,0,0,0,0,0,0,0,0,0,0,0,0,0,0,0,0,0,0,0,0,0,0,superkingdom:Eukaryota;phylum:Chordata;class:Aves;order:Columbiformes;family:Columbidae;genus:Gallicolumba;species:Gallicolumba luzonica;
0,0,0,1,0,0,0,0,0,0,0,0,0,0,0,0,0,0,0,0,0,0,0,0,0,0,0,0,0,0,0,0,0,superkingdom:Eukaryota;phylum:Chordata;class:Aves;order:Gruiformes;family:Rallidae;genus:Pelecanus;species:Pelecanus occidentalis;
0,0,0,0,0,1,0,0,0,0,0,0,0,0,0,0,0,0,0,0,0,0,0,0,0,0,0,0,0,0,0,0,0,superkingdom:Eukaryota;phylum:Chordata;class:Actinopteri;order:Labriformes;family:Labridae;genus:Choerodon;species:Choerodon zosterophorus;
0,0,0,0,0,1,0,0,0,0,0,0,0,0,0,0,0,0,0,0,0,0,0,0,0,0,0,0,0,0,0,0,0,superkingdom:Eukaryota;phylum:Chordata;class:Aves;order:Passeriformes;family:Passerellidae;genus:Spizella;species:Spizella atrogularis;
0,0,0,0,0,0,0,0,1,0,0,0,0,0,0,0,0,0,0,0,0,0,0,0,0,0,0,0,0,0,0,0,0,superkingdom:Eukaryota;phylum:Chordata;class:Aves;order:Pelecaniformes;family:Phalacrocoracidae;genus:Nannopterum;species:Nannopterum harrisi;
0,0,0,0,0,0,0,0,1,0,0,0,0,0,0,0,0,0,0,0,0,0,0,0,0,0,0,0,0,0,0,0,0,superkingdom:Eukaryota;phylum:Chordata;class:Aves;order:Charadriiformes;family:Laridae;genus:Larus;species:Gallirallus calayanensis;
0,0,0,0,0,0,0,0,0,1,0,0,0,0,0,0,0,0,0,0,0,0,0,0,0,0,0,0,0,0,0,0,0,superkingdom:Eukaryota;phylum:Chordata;class:Aves;order:Pelecaniformes;family:Phalacrocoracidae;genus:Urile;species:Urile penicillatus;
0,0,0,0,0,0,0,0,0,0,1,0,0,0,0,0,0,0,0,0,0,0,0,0,0,0,0,0,0,0,0,0,0,superkingdom:Eukaryota;phylum:Chordata;class:Aves;order:Passeriformes;family:Laridae;genus:Larus;species:Ploceus philippinus;
0,0,0.08129373167261854,0,0,0.03377400366689182,0,0,0,0,0,1,0.3755264075534455,0.7799691195899591,0,0,0,0,0.07828828262070026,0.5256611832070025,0.6201550387596899,0.4548657825613428,0,0,0,0,0,0,0,0,0,0,0.031185957408892455,superkingdom:Eukaryota;phylum:Chordata;class:Actinopteri;order:Cyprinodontiformes;family:Poeciliidae;genus:Gambusia;species:Gambusia holbrooki;
0,0,0,0,0,0,0,0,0,0,0,1,0,0,0,0,0,0,0,0,0,0,0,0,0,0,0,0,0,0,0,0,0,superkingdom:Eukaryota;phylum:Chordata;class:Actinopteri;order:Gobiiformes;family:Gobiidae;genus:Luciogobius;species:Luciogobius guttatus;
0,0,0,0.04980192416525184,0,0.017116182572614106,0,0,0.37367303609341823,0.015748031496062992,0,0,0,0,0,0,0,0,0,0,0,0,0,0,0,0.23404255319148934,0,1,0.15331010452961671,0,0,0.07357859531772575,0.021072796934865898,superkingdom:Eukaryota;phylum:Chordata;class:Aves;order:Pelecaniformes;family:Pelecanidae;genus:Pelecanus;species:Pelecanus occidentalis;
0,0,0,0,0,0,0,0,0,0,0,0,0,0,0,0,0,1,0,0,0,0,0,0,0,0,0,0,0,0,0,0,0,superkingdom:Eukaryota;phylum:Chordata;class:Actinopteri;order:Gobiiformes;family:Gobiidae;genus:Eucyclogobius;species:Eucyclogobius newberryi;
0,0,0,0,0,0,0,0,0,0,0,0,0,0,0,0,0,0,0,0,0,0,0,0,1,0.5651595744680851,0,0.9659090909090909,0,0,0,0.07107023411371237,0,superkingdom:Eukaryota;phylum:Chordata;class:Actinopteri;order:Scombriformes;family:Scombridae;genus:Auxis;species:Auxis rochei;
0,0,0,0,0,0,0,0,0,0,0,0,0,0,0,0,0,0,0,0,0,0,0,0,0,1,0,0,0,0,0,0,0,superkingdom:Eukaryota;phylum:Chordata;class:Aves;order:Anseriformes;family:Anatidae;genus:Oxyura;species:Oxyura jamaicensis;
0,0,0,0,0,0,0,0,0,0,0,0,0,0,0,0,0,0,0,0,0,0,0,0,0,0,0,1,0,0,0,0,0,superkingdom:Eukaryota;phylum:Chordata;class:Actinopteri;order:Centrarchiformes;family:'Percalatidae';genus:Percalates;species:Percalates colonorum;
0,0,0,0,0,0,0,0,0,0,0,0,0,0,0,0,0,0,0,0,0,0,0,0,0,0,0,1,0,0,0,0,0,superkingdom:Eukaryota;phylum:Chordata;class:Actinopteri;order:NA;family:Embiotocidae;genus:Rhacochilus;species:Rhacochilus vacca;
0,0,0,0,0,0,0,0,0,0,0,0,0,0,0,0,0,0,0,0,0,0,0,0,0,0,0,1,0,0,0,0,0,superkingdom:Eukaryota;phylum:Chordata;class:Actinopteri;order:Centrarchiformes;family:Embiotocidae;genus:Rhacochilus;species:Rhacochilus vacca;
0,0,0,0,0,0,0,0,0,0,0,0,0,0,0,0,0,0,0,0,0,0,0,0,0,0,0,0,1,0,0,0,0,superkingdom:Eukaryota;phylum:Chordata;class:Actinopteri;order:Centrarchiformes;family:Kyphosidae;genus:Kyphosus;species:Kyphosus cornelii;
0,0,0,0,0,0,0,0,0,0,0,0,0,0,0,0,0,0,0,0,0,0,0,0,0,0,0,0,1,0,0,0.6230710555653347,0,superkingdom:Eukaryota;phylum:Chordata;class:Aves;order:Charadriiformes;family:Scolopacidae;genus:Calidris;species:Calidris ruficollis;
0,0,0,0,0,0,0,0,0,0.14124015748031496,0.75560897435897445,0,0,0,0,0,0,0,0,0,0,0,0,0,0,0,0,0,1,0.6080508474576272,0,0,0,superkingdom:Eukaryota;phylum:Chordata;class:Aves;order:Charadriiformes;family:Scolopacidae;genus:Tringa;species:Tringa semipalmata;
0,0,0,0,0,0,0,0,0,0,0,0,0,0,0,0,0,0,0,0,0,0,0,0,0,0,0,0,1,0,0,0,0,superkingdom:Eukaryota;phylum:Chordata;class:Aves;order:Gruiformes;family:Rallidae;genus:Pelecanus;species:Grus japonensis;
0,0,0,0,0,0,0,0,0,0,0,0,0,0,0,0,0,0,0,0,0,0,0,0,0,0,0,1,0,0,0,0,0,superkingdom:Eukaryota;phylum:Chordata;class:Actinopteri;order:Centrarchiformes;family:Embiotocidae;genus:Pseudogramma;species:Pseudogramma gregoryi;
0,0,0,0,0,0,0,0,0,0,0,0,0,0,0,0,0,0,0,0,0,0,0,0,0,0,0,0,1,0,0,0,0,superkingdom:Eukaryota;phylum:Chordata;class:Actinopteri;order:Mugiliformes;family:Mugilidae;genus:Mugil;species:Mugil curema;
0,0,0,0,0,0,0,0,0,0,0,0,0,0,0,0,0,0,0,0,0,0,0,0,0,0,0,0,1,0,0,0,0,superkingdom:Eukaryota;phylum:Chordata;class:Actinopteri;order:Atheriniformes;family:Atherinopsidae;genus:Odontesthes;species:Craterocephalus fluviatilis;
0,0,0,0,0,0,0,0,0,0,0,0,0,0,0,0,0,0,0,0,0,0,0,0,0,0,0,0,0,1,0,0,0,superkingdom:Eukaryota;phylum:Chordata;class:NA;order:Testudines;family:Testudinidae;genus:Gopherus;species:Gopherus agassizii;
0,0,0,0,0,0,0,0,0,0,0,0,0,0,0,0,0,0,0,0,0,0,0,0,0,0,0,0,0,0,0,1,0,superkingdom:Eukaryota;phylum:Chordata;class:Actinopteri;order:Centrarchiformes;family:Kyphosidae;genus:Girella;species:Girella zebra;
0,0,0,0,0,0,0,0,0,0,0,0,0,0,0,0,0,0,0,0,0,0,0,0,0,0,0,0,0,0,0,1,0,superkingdom:Eukaryota;phylum:Chordata;class:Aves;order:Charadriiformes;family:Scolopacidae;genus:Cepphus;species:Cepphus columba;
0,0,0,0,0,0,0,0,0,0,0,0,0,0,0,0,0,0,0,0,0,0,0,0,0,0,0,0,0,0,0,1,0,superkingdom:Eukaryota;phylum:Chordata;class:Aves;order:Gaviiformes;family:Gaviidae;genus:Gavia;species:Gavia stellata;
0,0,0,0,0,0,0,0,0,0,0,0,0,0,0,0,0,0,0,0,0,0,0,0,0,0,0,0,0,0,0,1,0,superkingdom:Eukaryota;phylum:Chordata;class:Aves;order:Charadriiformes;family:Laridae;genus:Pelecanus;species:Pinguinus impennis;
0,0,0,0,0,0,0,0,0,0,0,0,0,0,0,0,0,0,0,0,0,0,0,0,0,0,0,0,0,0,0,0,1,superkingdom:Eukaryota;phylum:Chordata;class:Actinopteri;order:Labriformes;family:Labridae;genus:Coris;species:Coris flavovittata;
0,0,0,0,0,0,0,0,0,0,0,0,0,0,0,0,0,0,0,0,0,0,0,0,0,0,0,0,0,0,0.7103973870440936,0,1,superkingdom:Eukaryota;phylum:Chordata;class:Actinopteri;order:Clupeiformes;family:Clupeidae;genus:Sardinops;species:Sardinops melanostictus;
0,0,0,0,0,0,0,0,0,0,0,0,0,0,0,0,0,0,0,0,0,0,0,0,0,0,0,0,0,0,0,0,1,superkingdom:Eukaryota;phylum:Chordata;class:Aves;order:Anseriformes;family:Anatidae;genus:Mareca;species:Mareca americana;
0,0,0,0,0,0,0,0,0.2898089171974522,0.9770937723693629,1,0,0,0,0,0,0,0,0,0,0,0,0,0,0,0,0,0,0.07926829268292683,0,0,0,0,superkingdom:Eukaryota;phylum:Chordata;class:Aves;order:Charadriiformes;family:Laridae;genus:Larus;species:Larus dominicanus;
0,0,0,0,0,0,0,0,0,0,0,0,0,0,0,0,0,0,0,0,0,0,0,0,0,0,0,0,0,0,0,0,1,superkingdom:Eukaryota;phylum:Chordata;class:Aves;order:Anseriformes;family:Anatidae;genus:Mareca;species:Lophonetta specularioides;
0,0,0,0,0,0,0,0,0.5211341944957041,1,0.9732275512649344,0,0,0,0,0,0,0,0,0,0,0,0,0,0,0,0,0,0.20774474366906553,0,0,0.24016191041790388,0.02000930998675117,superkingdom:Eukaryota;phylum:Chordata;class:Aves;order:Charadriiformes;family:Laridae;genus:Larus;species:Larus glaucoides;
0,0,0,0,0,0,0,0,0,0,0,0,0,0,0,0,0,0,0,0,0,0,0,0,0,0,0,0,0,1,0,0,0,superkingdom:Eukaryota;phylum:Chordata;class:NA;order:Testudines;family:Testudinidae;genus:Gopherus;species:Gopherus polyphemus;
0,0,0,0,0,0,0,0,0,0,0,0,0,0,0,0,0,0,0,0,0,0,0,0,0,0,0,0,0,0,1,0,0.8074208509780197,superkingdom:Eukaryota;phylum:Chordata;class:Actinopteri;order:NA;family:Embiotocidae;genus:Amphistichus;species:Amphistichus argenteus;
0,0,0,0,0,0,0,0,0,0,0,0.28914285714285715,0,0.17166324435318278,0,0,0,0,0,0,0,0.03116883116883117,0,0,0,0,0,0,0,0,1,0,0.817624521072797,superkingdom:Eukaryota;phylum:Chordata;class:Actinopteri;order:Gobiiformes;family:Gobiidae;genus:Gillichthys;species:Gillichthys mirabilis;
0,0,0,0,0,0,0,0,0,0,0,0,0,0,0,0,0,0,0,0,0,0,0,0,0,0,0,0,0.2233632862644416,0,0,0,1,superkingdom:Eukaryota;phylum:Chordata;class:Actinopteri;order:Blenniiformes;family:Clinidae;genus:Heterostichus;species:Heterostichus rostratus;
0,0,0,0,0,0,0,0,0,0,0,0,0,0,0,0,0,0,0,0,0,0,0,0,0,0,0,0,1,0,0,0,0,superkingdom:Eukaryota;phylum:Chordata;class:Aves;order:Charadriiformes;family:Charadriidae;genus:Charadrius;species:Charadrius vociferus;
0,0,0,0,0,0,0,0,0,0,0,0,0,0,0,0,0,0,0,0,0,0,0,0,0,0,0,0,0,0,0,0,1,superkingdom:Eukaryota;phylum:Chordata;class:Actinopteri;order:Pleuronectiformes;family:Paralichthyidae;genus:Etropus;species:Etropus microstomus;
0,0,0,0,0,0,0,0,0,0,0,0,0,0,0,0,0,0,0,0,0,0,0,0,0,0,0,0,1,0,0,0,0,superkingdom:Eukaryota;phylum:Chordata;class:Actinopteri;order:Centrarchiformes;family:Kyphosidae;genus:Kyphosus;species:Hermosilla azurea;
0,0,0,0,0,0,0,0,0,0,0,0,0,0,0,0,0,0,0,0,0,0,0,0,0,0,0,0,1,0,0,0,0.1736237144585602,superkingdom:Eukaryota;phylum:Chordata;class:Actinopteri;order:NA;family:Embiotocidae;genus:Embiotoca;species:Embiotoca jacksoni;
0,1,0,0,0,0,0,0,0.4843626994918772,0.5001166222965745,0.3003148536856402,0.011882022471910112,0.008222852921737103,0.17322866437487022,0,0,0,0.10666088394892381,0,0,0,0,0.05916359737050678,0,0.7828155981493721,0.12640449438202248,0,0.5184882533197139,0.40296754492424536,0,0.05400919305413688,0.3179136447333809,0.14567996900426192,superkingdom:Eukaryota;phylum:Chordata;class:Actinopteri;order:Atheriniformes;family:Atherinopsidae;genus:Odontesthes;species:Odontesthes incisa;
0,0,0,0,0,0,0,0,0,0,0,0,0,0,0,0,0,0,0,0,0,0,0,0,0,0,0,0,0,0,0,0,1,superkingdom:Eukaryota;phylum:Chordata;class:Actinopteri;order:Blenniiformes;family:Clinidae;genus:Gibbonsia;species:Gibbonsia montereyensis;
0,0,0,0,0,0,0,0,0,0.5211166785969935,1,0,0,0,0,0,0,0,0,0,0,0,0,0,0,0,0,0,0,0,0,0,0,superkingdom:Eukaryota;phylum:Chordata;class:Aves;order:Charadriiformes;family:Laridae;genus:Larus;species:Leucophaeus atricilla;
0,0,0,0,0,0,0,0,0,0,0,0,0,0,0,0,0,0,0,0,0,0,0,0,0,0,0,0,0,0,1,0,0.09833971902937422,superkingdom:Eukaryota;phylum:Chordata;class:Aves;order:Pelecaniformes;family:Phalacrocoracidae;genus:Phalacrocorax;species:Nannopterum auritus;
1,0,0,0,0,0,0,0,0,0,0,0,0,0,0,0,0,0,0,0,0,0,0,0,0,0,0,0,0,0,0,0,0,superkingdom:Eukaryota;phylum:Chordata;class:Aves;order:Galliformes;family:Odontophoridae;genus:Callipepla;species:Callipepla gambelii;
0,0,0,0,0,1,0,0,0,0,0,0,0,0,0,0,0,0,0,0,0,0,0,0,0,0,0,0,0,0,0,0,0,superkingdom:Eukaryota;phylum:Chordata;class:Aves;order:Anseriformes;family:Anatidae;genus:Cairina;species:Cairina moschata;
0,0,0,0,0,0,0,0,0,0,1,0,0,0,0,0,0,0,0,0,0,0,0,0,0,0,0,0,0,0,0,0,0,superkingdom:Eukaryota;phylum:Chordata;class:Aves;order:Charadriiformes;family:Laridae;genus:Larus;species:Turtur tympanistria;
0,0,0,0,0,0,0,0,0,0,0,0,0,1,0,0,0,0,0,0,0,0,0,0,0,0,0,0,0,0,0,0,0,superkingdom:Eukaryota;phylum:Chordata;class:Actinopteri;order:Gobiiformes;family:Gobiidae;genus:Gillichthys;species:Gillichthys seta;
0,0,0,0,0,0,0,0,0,0,0,0,0,0,0,0,0,0,0,0,0,0,0,0,0,0,0,0,1,0,0,0,0,superkingdom:Eukaryota;phylum:Chordata;class:Actinopteri;order:Cypriniformes;family:Cyprinidae;genus:Schizothorax;species:Barbodes lateristriga;
0,0,0,0,0,0,0,0,0,0,0,0,0,0,0,0,0,0,0,0,0,0,0,0,0,0,0,0,0,1,0,0,0,superkingdom:Eukaryota;phylum:Chordata;class:Aves;order:Anseriformes;family:Anatidae;genus:Anas;species:Aegotheles cristatus;
0,0,0,0,0,0,0,0,0,0,0,0,0,0,0,0,0,0,0,0,0,0,0,0,0,0,0,0,0,0,1,0,0.08429118773946359,superkingdom:Eukaryota;phylum:Cnidaria;class:Scyphozoa;order:Rhizostomeae;family:Stomolophidae;genus:Stomolophus;species:Stomolophus meleagris;
0.054370821697554375,0.04154290679113374,0.014690885477402332,0.020511369407804042,1,0.029052292797106076,0.814027149321267,0.7980384922830966,0.020986444553323533,0.03144711806129129,0.07744356782818321,0.014513125763125764,0.1957161446780824,0.01014847575422524,0.14106484748686585,0.17160790598290598,0.19220085470085468,0.1784475747671439,0.4852681633565313,0.025490094612193502,0.3314484126984127,0.03533461488006943,0.2552044543745789,0.2872452333990796,0.14213172448466568,0.25120476450263685,0.18304843304843305,0.11981351981351981,0.014669386620606132,0.06205031628760442,0.1872086247086247,0.06244461595632164,0.00999402364344893,not_found
0,0,0,0,0,0,0,0,0,0,0,0,0,0,0,0,0,0,0,0,0,0,0,0,0,0,0,0,0,0,0,0,1,superkingdom:Eukaryota;phylum:Chordata;class:Aves;order:Charadriiformes;family:Charadriidae;genus:Thinornis;species:Thinornis novaeseelandiae;
0,0,0,0,0,0,0,0,0,0,0,0,0,0,0,0,0,0,0,0,0,0,0,0,0,0.5648936170212766,0,0,0,1,0,0,0,superkingdom:Eukaryota;phylum:Chordata;class:Actinopteri;order:Perciformes;family:Hexagrammidae;genus:Hexagrammos;species:Hexagrammos otakii;
0,0,0,0,0,0,0,0,0,0,1,0,0,0,0,0,0,0,0,0,0,0,0,0,0,0,0,0,0,0,0,0,0,superkingdom:Eukaryota;phylum:Chordata;class:Actinopteri;order:Clupeiformes;family:Clupeidae;genus:Dorosoma;species:Dorosoma petenense;
0,0.03414762280010507,0,0,0,0.007491931765790686,0,0,0,0.015509424958243857,0.01984126984126984,0,0,0,0,0,0,0.006483143826052264,0,0,0,0,0,1,0,0.0384160756501182,0,0.5909090909090908,0,0,0,0,0.003458918688803746,superkingdom:Eukaryota;phylum:Chordata;class:Actinopteri;order:Labriformes;family:Labridae;genus:Clepticus;species:Clepticus parrae;
0,0,0,0,0,0,0,0,0,0,0,0,0,0,0,0,0,0,0,0,0,0,0,0,0,0,0,0,0,0,0,1,0,superkingdom:Eukaryota;phylum:Chordata;class:Aves;order:Charadriiformes;family:Laridae;genus:Larus;species:Larus delawarensis;
0,0,0,0,0,0,0,0,0,0,0,0,0,0,0,0,0,0,0,0,0,0,0,0,0,0,0,0,0,0,0,1,0,superkingdom:Eukaryota;phylum:Chordata;class:Aves;order:Charadriiformes;family:Alcidae;genus:Fratercula;species:Fratercula corniculata;
0,0,0,0,0,0,0,0,0,0,1,0,0,0,0,0,0,0,0,0,0,0,0,0,0,0,0,0,0,0,0,0,0,superkingdom:Eukaryota;phylum:Chordata;class:Aves;order:Charadriiformes;family:Laridae;genus:Larus;species:Saundersilarus saundersi;
0,0,0,0,0,0,0,0,0,0,0,0,0,0,0,0,0,0,0,0,0,0,0,0,0,0,0,0,1,0,0,0,0,superkingdom:Eukaryota;phylum:Chordata;class:Actinopteri;order:NA;family:Pomacentridae;genus:Hypsypops;species:Hypsypops rubicundus;
0,0,0,0,0,0,0,0,0,0,0,0,0,0,0,0,0,0,0,0,0,0,0,0,0,0,0,0,1,0,0,0,0,superkingdom:Eukaryota;phylum:Chordata;class:Actinopteri;order:Perciformes;family:Cottidae;genus:Clinocottus;species:Clinocottus analis;
0,0,0,0,0,0,0,0,0,0,0,0,0,0,0,0,0,0,0,0,0,0,0,0,1,0,0,0,0,0,0,0,0,superkingdom:Eukaryota;phylum:Chordata;class:Aves;order:Musophagiformes;family:Musophagidae;genus:Tauraco;species:Urocolius macrourus;
1,0.08160517102073794,0.03625441073883685,0.10852979733940812,0,0.06597969956405272,0.045122859270290396,0,0,0,0,4.566003616636528e-4,0,0,0,0,0,0.012624139263232052,0,0.02580183678422256,0.5228074141048824,0.06603724238937127,0.3182940280476916,0,0.07520476545048399,0,0,0,0,0.007223056568690552,0,0.05131027475551416,0,superkingdom:Eukaryota;phylum:Chordata;class:Mammalia;order:Primates;family:Hominidae;genus:Homo;species:Homo sapiens;
0,0,0,0,0,0,0,0,0,0,0,0,0,0,0,0,0,0,0,0,0,0,0,0,0,1,0,0,0,0,0,0,0,superkingdom:Eukaryota;phylum:Chordata;class:Aves;order:Accipitriformes;family:Accipitridae;genus:Leucopternis;species:Leucopternis melanops;
0,0,0,0,0,0,0,0,0,0,0,0,0,0,0,0,0,0,0,0,0,0,0,0,0,0,0,1,0.5908826945412312,0,0,0,0.3029214559386973,superkingdom:Eukaryota;phylum:Chordata;class:Actinopteri;order:Scombriformes;family:Scombridae;genus:Thunnus;species:Thunnus alalunga;
0,0,0,0,0,0,0,0,0,0,0,0,0,0,0,0,0,0,0,0,0,0,0,0,0,0,0,0,0,0,0,0,1,superkingdom:Eukaryota;phylum:Chordata;class:Actinopteri;order:Lutjaniformes;family:Lutjanidae;genus:Lutjanus;species:Gambusia holbrooki;
0,0,0,0,0,0,0,0,0,0,0,0,0,0,0,0,0,0,0,0,0,0,0,0,0,0,0,0,0,0,0,0,1,superkingdom:Eukaryota;phylum:Chordata;class:Actinopteri;order:NA;family:Embiotocidae;genus:Ditrema;species:Ditrema temminckii;
0,0,0,0,0,0,0,0,0,0,0,0,0,0,0,0,0,0,0,0,0,0,0,0,0,0,0,0,0,0,0,0,1,superkingdom:Eukaryota;phylum:Chordata;class:Aves;order:Accipitriformes;family:Accipitridae;genus:Accipiter;species:Accipiter soloensis;
0,0,0,0,0,0,0,0,0,0,0,0,0,0,0,0,0,0,0,0,0,0,0,0,0,0,0,0,0,0,0,0,1,superkingdom:Eukaryota;phylum:Chordata;class:Aves;order:Anseriformes;family:Anatidae;genus:Aix;species:Aix sponsa;
0,0,0,0,0,0,0,0,0,0,0,0,0,0,0,0,0,0,0,0,0,0,0,0,0,0,0,0,1,0,0,0,0,superkingdom:Eukaryota;phylum:Chordata;class:Actinopteri;order:Anabantiformes;family:Channidae;genus:Channa;species:Channa micropeltes;
0,0,0,1,0,0,0,0,0,0,0,0,0,0,0,0,0,0,0,0,0,0,0,0,0,0,0,0,0,0,0,0,0,superkingdom:Eukaryota;phylum:Chordata;class:Aves;order:Musophagiformes;family:Musophagidae;genus:Musophaga;species:Musophaga violacea;
0,0,0,0,0,0,0,0,0,0,0,0,0,0,0,0,0,0,0,0,0,0,0,0,0,0,0,0,0,0,0,0,1,superkingdom:Eukaryota;phylum:Chordata;class:Actinopteri;order:NA;family:Embiotocidae;genus:Cymatogaster;species:Cymatogaster aggregata;
0,0,0,0,0,0,0,0,0,0,0,0,0,0,0,0,0,0,0,0,0,0,0,0,0,0,0,0,0,0,1,0,0,superkingdom:Eukaryota;phylum:Chordata;class:Actinopteri;order:Anabantiformes;family:Channidae;genus:Amphistichus;species:Amphistichus argenteus;
0,0.20094562647754136,0,0,0,0.3228734439834025,0,0,0,0,0,0,0,0,0,0,0,0.11819269898264512,0,0,0,0,0,1,0,0.6382978723404256,0.5092592592592593,0,0,0.3672316384180791,0.14204545454545453,0,0.385536398467433,superkingdom:Eukaryota;phylum:Chordata;class:Aves;order:Anseriformes;family:Anatidae;genus:Anas;species:Anas platyrhynchos;
0,0,0,0,0,0,0,0,0,0,0,0,0,0,0,0,0,0,0,0,0,0,0,0,0,0,0,1,0,0,0,0,0,superkingdom:Eukaryota;phylum:Chordata;class:Actinopteri;order:Cypriniformes;family:Cyprinidae;genus:Mystacoleucus;species:Mystacoleucus marginatus;
0,0,0,0,0,0,0,0,0,0,0,0,0,0,0,0,0,0,0,0,0,0,0,0,0,0,0,1,0,0,0,0,0,superkingdom:Eukaryota;phylum:Chordata;class:Actinopteri;order:Centrarchiformes;family:Kyphosidae;genus:Girella;species:Atherinomorus lacunosus;
0,0,0,0,0,0,0,0,0,0,0,0,0,0,0,0,0,0,0,0,0,0,0,0,0,1,0,0,0,0,0,0,0,superkingdom:Eukaryota;phylum:Chordata;class:Actinopteri;order:Perciformes;family:Anabantidae;genus:Ctenopoma;species:Ctenopoma ocellatum;
0,0,0,0,0,0,0,0,0,0,0,0,0,0,0,0,0,0,0,0,0,0,0,0,0,0,0,0,1,0,0,0,0,superkingdom:Eukaryota;phylum:Chordata;class:Actinopteri;order:NA;family:Ambassidae;genus:Ambassis;species:Ambassis jacksoniensis;
0,0,0,0,0,0,0,0,0,0,1,0,0,0,0,0,0,0,0,0,0,0,0,0,0,0,0,0,0,0,0,0,0,superkingdom:Eukaryota;phylum:Chordata;class:Aves;order:Charadriiformes;family:Laridae;genus:Phaetusa;species:Phaetusa simplex;
0,0,0,0,0,1,0,0,0,0,0,0,0,0,0,0,0,0,0,0,0,0,0,0,0,0,0,0,0,0,0,0,0,superkingdom:Eukaryota;phylum:Chordata;class:Aves;order:Accipitriformes;family:Accipitridae;genus:Ardenna;species:Accipiter nisus;
0,1,0,0,0,0,0,0,0,0,0,0,0,0,0,0,0,0,0,0,0,0,0,0,0,0,0,0,0,0,0,0,0,superkingdom:Eukaryota;phylum:Chordata;class:Aves;order:Accipitriformes;family:Accipitridae;genus:Accipiter;species:Accipiter nisus;
0,0,0,0,0,0,0,0,0,0,0,0,0,0,0,0,0,0,0,0,0,0,0,0,0,0,0,0,1,0,0,0,0,superkingdom:Eukaryota;phylum:Chordata;class:Actinopteri;order:NA;family:Pomacentridae;genus:Mecaenichthys;species:Mecaenichthys immaculatus;
0,0,0,0,0,0,0,0,0,0,0,0,0,0,0,0,0,0,0,0,0,0,0,0,0,0,0,0,0,0,0,1,0,superkingdom:Eukaryota;phylum:Chordata;class:Aves;order:Charadriiformes;family:Alcidae;genus:Cyclorrhynchus;species:Cyclorrhynchus psittacula;
0,0,0,0,0,0,0,0,0,0,0,0,0,0,0,0,0,0,0,0,0,0,0,0,0,0,0,0,0.09922017587522815,0,0,1,0,superkingdom:Eukaryota;phylum:Chordata;class:Aves;order:Charadriiformes;family:Scolopacidae;genus:Limnodromus;species:Phalaropus tricolor;
