"Extraction_ID" "Pooled_ID" "type" "control_type"
"PM001.S44" "RT007" "PM001" "sample" NA
"PM002.S45" "RT027" "PM002" "sample" NA
"PM003.S46" "RT028" "PM003" "sample" NA
"PM004.S47" "RT003" "PM004" "sample" NA
"PM005.S48" "RT001" "PM005" "sample" NA
"PM006.S49" "RT009" "PM006" "sample" NA
"PM007.S50" "RT010" "PM007" "sample" NA
"PM008.S51" "RT016" "PM008" "sample" NA
"PM009.S52" "RT002" "PM009" "sample" NA
"PM010.S53" "RT017" "PM010" "sample" NA
"PM011.S54" "RT024" "PM011" "sample" NA
"PM012.S55" "RT153" "PM012" "sample" NA
"PM013.S56" "RT139" "PM013" "sample" NA
"PM014.S57" "RT151" "PM014" "sample" NA
"PM015.S58" "RT149" "PM015" "sample" NA
"PM016.S59" "RT129" "PM016" "sample" NA
"PM017.S60" "RT133" "PM017" "sample" NA
"PM018.S61" "RT109" "PM018" "sample" NA
"PM019.S62" "RT169" "PM019" "sample" NA
"PM020.S63" "RT128" "PM020" "sample" NA
"PM021.S64" "RT130" "PM021" "sample" NA
"PM022.S65" "RT073" "PM022" "sample" NA
"PM023.S66" "RT152" "PM023" "sample" NA
"PM024.S77" "PM024" "" "control" "extraction"
"RT018.S78" "RT018" "" "control" "extraction"
"RT026.S86" "RT026" "" "sample" NA
"RT034.S79" "RT034" "" "control" "extraction"
"RT138.S80" "RT138" "" "control" "extraction"
"RT140.S81" "RT140" "" "control" "extraction"
"RT144.S82" "RT144" "" "control" "extraction"
"RT162.S83" "RT162" "" "control" "extraction"
"RT175.S84" "RT175" "" "control" "extraction"
"RT243.S70" "RT243" "" "sample" NA
"RT244.S74" "RT244" "" "sample" NA
"RT245.S75" "RT245" "" "sample" NA
"RT246.S71" "RT246" "" "sample" NA
"RT263.S85" "RT263" "" "control" "extraction"
"RT269.S73" "RT269" "" "sample" NA
"RT272.S76" "RT272" "" "sample" NA
"RT273.S68" "RT273" "" "sample" NA
"RT274.S72" "RT274" "" "sample" NA
"RT279.S67" "RT279" "" "sample" NA
"PCR.Blank.S94" "" "" "control" "pcr"
